{"status":true,"items":[{"modified":{"time":"2024-01-31T13:49:07.000Z"},"_id":"6224e7daeb35da19972d8875","name":"Thành phố Thái Nguyên không nỗi buồn","origin_name":"No Sadness in Town","thumb_url":"thanh-pho-thai-nguyen-khong-noi-buon-thumb.jpg","slug":"thanh-pho-thai-nguyen-khong-noi-buon","year":2017,"poster_url":"thanh-pho-thai-nguyen-khong-noi-buon-poster.jpg"},{"modified":{"time":"2024-01-31T13:48:56.000Z"},"_id":"6224e7ceeb35da19972d885f","name":"Khi mình thành cậu","origin_name":"When I Become You","thumb_url":"khi-minh-thanh-cau-thumb.jpg","slug":"khi-minh-thanh-cau","year":2016,"poster_url":"khi-minh-thanh-cau-poster.jpg"},{"modified":{"time":"2024-01-31T13:48:45.000Z"},"_id":"6224e7c0eb35da19972d884e","name":"Khi yêu chưa đủ","origin_name":"Almost Lover","thumb_url":"khi-yeu-chua-du-thumb.jpg","slug":"khi-yeu-chua-du","year":2018,"poster_url":"khi-yeu-chua-du-poster.jpg"},{"modified":{"time":"2024-01-31T13:48:31.000Z"},"_id":"6224e7b1eb35da19972d8837","name":"Khoa khôi ma phục chi Công chúa điêu ngoa","origin_name":"Alien Princess","thumb_url":"khoa-khoi-ma-phuc-chi-cong-chua-dieu-ngoa-thumb.jpg","slug":"khoa-khoi-ma-phuc-chi-cong-chua-dieu-ngoa","year":2018,"poster_url":"khoa-khoi-ma-phuc-chi-cong-chua-dieu-ngoa-poster.jpg"},{"modified":{"time":"2024-01-31T13:48:15.000Z"},"_id":"6224e7b1eb35da19972d8833","name":"Thanh xuân không diễn tập","origin_name":"Girls Like the Wind","thumb_url":"thanh-xuan-khong-dien-tap-thumb.jpg","slug":"thanh-xuan-khong-dien-tap","year":2018,"poster_url":"thanh-xuan-khong-dien-tap-poster.jpg"},{"modified":{"time":"2024-01-31T13:47:56.000Z"},"_id":"6224e7a0eb35da19972d8820","name":"Không bao giờ quên tại sao bạn bắt đầu","origin_name":"Never Forget Why You Started","thumb_url":"khong-bao-gio-quen-tai-sao-ban-bat-dau-thumb.jpg","slug":"khong-bao-gio-quen-tai-sao-ban-bat-dau","year":2018,"poster_url":"khong-bao-gio-quen-tai-sao-ban-bat-dau-poster.jpg"},{"modified":{"time":"2024-01-31T13:47:34.000Z"},"_id":"6224e791eb35da19972d880a","name":"Không gian cất giữ linh hồn","origin_name":"Space of Love","thumb_url":"khong-gian-cat-giu-linh-hon-thumb.jpg","slug":"khong-gian-cat-giu-linh-hon","year":2018,"poster_url":"khong-gian-cat-giu-linh-hon-poster.jpg"},{"modified":{"time":"2024-01-31T13:47:24.000Z"},"_id":"6224e788eb35da19972d87f9","name":"Thân nam thân nữ","origin_name":"Make A Switch","thumb_url":"than-nam-than-nu-thumb.jpg","slug":"than-nam-than-nu","year":2017,"poster_url":"than-nam-than-nu-poster.jpg"},{"modified":{"time":"2024-01-31T13:47:10.000Z"},"_id":"6224e783eb35da19972d87ed","name":"Không làm người có tiền","origin_name":"Don&#x27;&#x27;t Be Rich","thumb_url":"khong-lam-nguoi-co-tien-thumb.jpg","slug":"khong-lam-nguoi-co-tien","year":2017,"poster_url":"khong-lam-nguoi-co-tien-poster.jpg"},{"modified":{"time":"2024-01-31T13:46:54.000Z"},"_id":"6224e774eb35da19972d87d7","name":"Không thể chạm","origin_name":"Untouchable","thumb_url":"khong-the-cham-thumb.jpg","slug":"khong-the-cham","year":2018,"poster_url":"khong-the-cham-poster.jpg"},{"modified":{"time":"2024-01-31T13:46:39.000Z"},"_id":"6224e762eb35da19972d87ca","name":"Thiên cơ mật lệnh","origin_name":"The Secret Token","thumb_url":"thien-co-mat-lenh-thumb.jpg","slug":"thien-co-mat-lenh","year":2018,"poster_url":"thien-co-mat-lenh-poster.jpg"},{"modified":{"time":"2024-01-31T13:46:28.000Z"},"_id":"6224e743eb35da19972d87b1","name":"Kiến tập ái thần","origin_name":"Nederlands Smile","thumb_url":"kien-tap-ai-than-thumb.jpg","slug":"kien-tap-ai-than","year":2017,"poster_url":"kien-tap-ai-than-poster.jpg"},{"modified":{"time":"2024-01-31T13:46:15.000Z"},"_id":"6224e738eb35da19972d87a5","name":"Thiên đường đá","origin_name":"Rock Heaven","thumb_url":"thien-duong-da-thumb.jpg","slug":"thien-duong-da","year":2018,"poster_url":"thien-duong-da-poster.jpg"},{"modified":{"time":"2024-01-31T13:45:45.000Z"},"_id":"6224e719eb35da19972d8794","name":"Kinh di thiếu nữ tâm","origin_name":"Beautiful Teacher","thumb_url":"kinh-di-thieu-nu-tam-thumb.jpg","slug":"kinh-di-thieu-nu-tam","year":2017,"poster_url":"kinh-di-thieu-nu-tam-poster.jpg"},{"modified":{"time":"2024-01-31T13:45:26.000Z"},"_id":"6224e706eb35da19972d877e","name":"Làng hoa kiều oa chi Nộ hải thần quyền","origin_name":"Angels of the Beach","thumb_url":"lang-hoa-kieu-oa-chi-no-hai-than-quyen-thumb.jpg","slug":"lang-hoa-kieu-oa-chi-no-hai-than-quyen","year":2018,"poster_url":"lang-hoa-kieu-oa-chi-no-hai-than-quyen-poster.jpg"},{"modified":{"time":"2024-01-31T13:45:14.000Z"},"_id":"6224e703eb35da19972d8772","name":"Thời đại theo đuổi ước mơ của chúng ta","origin_name":"The Pursuit of Dream","thumb_url":"thoi-dai-theo-duoi-uoc-mo-cua-chung-ta-thumb.jpg","slug":"thoi-dai-theo-duoi-uoc-mo-cua-chung-ta","year":2018,"poster_url":"thoi-dai-theo-duoi-uoc-mo-cua-chung-ta-poster.jpg"},{"modified":{"time":"2024-01-31T13:32:29.000Z"},"_id":"651fa568fe8e2316c08d3646","name":"Hoang Dã","slug":"hoang-da","origin_name":"Yabani","thumb_url":"hoang-da-thumb.jpg","poster_url":"hoang-da-poster.jpg","year":2023},{"modified":{"time":"2024-01-31T13:31:57.000Z"},"_id":"641858206b6fc3890474ea3a","name":"Bản Án","slug":"ban-an","origin_name":"Yargi","thumb_url":"ban-an-thumb.jpg","poster_url":"ban-an-poster.jpg","year":2021},{"modified":{"time":"2024-01-30T22:33:38.000Z"},"_id":"65a4fd687074f826ccd3179d","name":"Thực Tập Sinh Trong Trái Tim Tôi","slug":"thuc-tap-sinh-trong-trai-tim-toi","origin_name":"Intern in my heart","thumb_url":"thuc-tap-sinh-trong-trai-tim-toi-thumb.jpg","poster_url":"thuc-tap-sinh-trong-trai-tim-toi-poster.jpg","year":2024},{"modified":{"time":"2024-01-30T22:28:25.000Z"},"_id":"65991e0e7074f826ccbde32e","name":"Người Phiên Dịch Của Chúng Tôi","slug":"nguoi-phien-dich-cua-chung-toi","origin_name":"Our Interpreter","thumb_url":"nguoi-phien-dich-cua-chung-toi-thumb.jpg","poster_url":"nguoi-phien-dich-cua-chung-toi-poster.jpg","year":2024},{"modified":{"time":"2024-01-30T22:12:01.000Z"},"_id":"65b8a7907074f826ccf94b75","name":"Mật Vụ Ong","slug":"mat-vu-ong","origin_name":"The Beekeeper","thumb_url":"mat-vu-ong-thumb.jpg","poster_url":"mat-vu-ong-poster.jpg","year":2024},{"modified":{"time":"2024-01-30T21:26:36.000Z"},"_id":"65b907145540d59e3fd93a2b","name":"Tấn Văn Công Truyền Kỳ ","slug":"tan-van-cong-truyen-ky","origin_name":"Tấn Văn Công Truyền Kỳ ","thumb_url":"tan-van-cong-truyen-ky-thumb.jpg","poster_url":"tan-van-cong-truyen-ky-poster.jpg","year":1989},{"modified":{"time":"2024-01-30T21:19:48.000Z"},"_id":"65b9057f5540d59e3fd938a5","name":"Truyền Thuyết Mỹ Nhân Ngư","slug":"truyen-thuyet-my-nhan-ngu","origin_name":"The Beauty Mermaid","thumb_url":"truyen-thuyet-my-nhan-ngu-thumb.jpg","poster_url":"truyen-thuyet-my-nhan-ngu-poster.jpg","year":2000},{"modified":{"time":"2024-01-30T17:28:17.000Z"},"_id":"6549cb4caa7d07ce5c74d354","name":"Không Một Ai Biết","slug":"khong-mot-ai-biet-tnk","origin_name":"Kimse Bilmez","thumb_url":"khong-mot-ai-biet-tnk-thumb.jpg","poster_url":"khong-mot-ai-biet-tnk-poster.jpg","year":2019}],"pathImage":"https://img.ophim11.cc/uploads/movies/","pagination":{"totalItems":25309,"totalItemsPerPage":24,"currentPage":5,"totalPages":1055}}