{"status":true,"items":[{"modified":{"time":"2024-02-09T21:22:51.000Z"},"_id":"65c635305540d59e3fe9b946","name":"Ác Nữ","slug":"ac-nu","origin_name":"Lost in Perfection","thumb_url":"ac-nu-thumb.jpg","poster_url":"ac-nu-poster.jpg","year":2023},{"modified":{"time":"2024-02-09T21:18:14.000Z"},"_id":"65c63422ff05f1a47d0eb2e3","name":"Nghịch Lý Kẻ Sát Nhân","slug":"nghich-ly-ke-sat-nhan","origin_name":"A Killer Paradox","thumb_url":"nghich-ly-ke-sat-nhan-thumb.jpg","poster_url":"nghich-ly-ke-sat-nhan-poster.jpg","year":2024},{"modified":{"time":"2024-02-09T21:09:44.000Z"},"_id":"649351a09f4442ce4d284708","name":"Già Thiên","slug":"gia-thien","origin_name":"Shrouding the Heavens","thumb_url":"gia-thien-thumb.jpg","poster_url":"gia-thien-poster.jpg","year":2023},{"modified":{"time":"2024-02-09T21:07:11.000Z"},"_id":"65c3468d5540d59e3fe6261a","name":"Nam Lai Bắc Vãng","slug":"nam-lai-bac-vang","origin_name":"Always on the Move","thumb_url":"nam-lai-bac-vang-thumb.jpg","poster_url":"nam-lai-bac-vang-poster.jpg","year":2024},{"modified":{"time":"2024-02-09T21:06:55.000Z"},"_id":"65c24a115540d59e3fe55956","name":"Tầng 19","slug":"tang-19","origin_name":"19th Floor","thumb_url":"tang-19-thumb.jpg","poster_url":"tang-19-poster.jpg","year":2024},{"modified":{"time":"2024-02-09T21:00:04.000Z"},"_id":"65b73fc331d8a2b99ecb5ad3","name":"Cạm Bẫy Ngọt Ngào","slug":"cam-bay-ngot-ngao","origin_name":"Sweet Trap","thumb_url":"cam-bay-ngot-ngao-thumb.jpg","poster_url":"cam-bay-ngot-ngao-poster.jpg","year":2024},{"modified":{"time":"2024-02-09T20:55:10.000Z"},"_id":"65bca0995540d59e3fdcc07e","name":"Cô Ấy Độc Nhất Hữu Nhị","slug":"co-ay-doc-nhat-huu-nhi","origin_name":"My Special Girl","thumb_url":"co-ay-doc-nhat-huu-nhi-thumb.jpg","poster_url":"co-ay-doc-nhat-huu-nhi-poster.jpg","year":2024},{"modified":{"time":"2024-02-09T20:49:58.000Z"},"_id":"65b9eaf25540d59e3fd9bb6d","name":"Hỉ Quyển Thường Lạc Thành","slug":"hi-quyen-thuong-lac-thanh","origin_name":"The Happy Seven in Changan","thumb_url":"hi-quyen-thuong-lac-thanh-thumb.jpg","poster_url":"hi-quyen-thuong-lac-thanh-poster.jpg","year":2024},{"modified":{"time":"2024-02-09T20:47:52.000Z"},"_id":"65b1e73031d8a2b99ec38ffa","name":"Tướng Quân Ở Dưới","slug":"tuong-quan-o-duoi","origin_name":"My Lady General","thumb_url":"tuong-quan-o-duoi-thumb.jpg","poster_url":"tuong-quan-o-duoi-poster.jpg","year":2023},{"modified":{"time":"2024-02-09T20:44:50.000Z"},"_id":"65c07f54ff05f1a47d079cab","name":"Chỉ Là Chồng Sắp Cưới","slug":"chi-la-chong-sap-cuoi","origin_name":"Life Is Drama","thumb_url":"chi-la-chong-sap-cuoi-thumb.jpg","poster_url":"chi-la-chong-sap-cuoi-poster.jpg","year":2024},{"modified":{"time":"2024-02-09T20:40:31.000Z"},"_id":"62a4ced67a956fb5db09cc02","name":"Thôn Tính Bầu Trời","origin_name":"Swallowed Star","thumb_url":"thon-tinh-bau-troi-thumb.jpg","poster_url":"thon-tinh-bau-troi-poster.jpg","slug":"thon-tinh-bau-troi","year":2020},{"modified":{"time":"2024-02-09T17:27:10.000Z"},"_id":"6422921654695c9785d3b336","name":"Hoa Máu","slug":"hoa-mau","origin_name":"Kan Cicekleri","thumb_url":"hoa-mau-thumb.jpg","poster_url":"hoa-mau-poster.jpg","year":2022},{"modified":{"time":"2024-02-09T17:19:28.000Z"},"_id":"65bcd6e4ff05f1a47d02367a","name":"Con Gái Ngài Đại Sứ","slug":"con-gai-ngai-dai-su","origin_name":"Sefirin Kizi","thumb_url":"con-gai-ngai-dai-su-thumb.jpg","poster_url":"con-gai-ngai-dai-su-poster.jpg","year":2019},{"modified":{"time":"2024-02-09T17:17:43.000Z"},"_id":"64147f7e72b9a838f842fcf9","name":"Chim Lửa","slug":"chim-lua-tho-nhi-ky","origin_name":"Ateş Kuşları","thumb_url":"chim-lua-tho-nhi-ky-thumb.jpg","poster_url":"chim-lua-tho-nhi-ky-poster.jpg","year":2023},{"modified":{"time":"2024-02-09T17:15:47.000Z"},"_id":"655af363aa7d07ce5c940435","name":"Cô Dâu Istanbul","slug":"co-dau-instabul","origin_name":"Istanbullu Gelin","thumb_url":"co-dau-instabul-thumb.jpg","poster_url":"co-dau-instabul-poster.jpg","year":2017},{"modified":{"time":"2024-02-09T17:14:09.000Z"},"_id":"6404b7820fc1635bd467951c","name":"Cầm Tù","slug":"cam-tu","origin_name":"Esaret","thumb_url":"cam-tu-thumb.jpg","poster_url":"cam-tu-poster.jpg","year":2022},{"modified":{"time":"2024-02-09T16:47:40.000Z"},"_id":"65bd4d865540d59e3fde1274","name":"Trò Chơi Trí Mệnh","slug":"tro-choi-tri-menh","origin_name":"The Spirealm","thumb_url":"tro-choi-tri-menh-thumb.jpg","poster_url":"tro-choi-tri-menh-poster.jpg","year":2024},{"modified":{"time":"2024-02-09T16:28:29.000Z"},"_id":"65a0ef7f31d8a2b99ea1442d","name":"URUSEI YATSURA Mùa 2","slug":"urusei-yatsura-mua-2","origin_name":"うる星やつら　後半","thumb_url":"urusei-yatsura-mua-2-thumb.jpg","poster_url":"urusei-yatsura-mua-2-poster.jpg","year":2024},{"modified":{"time":"2024-02-09T16:28:08.000Z"},"_id":"653b74f9aab68118a3b76d78","name":"Thiếu Niên Ca Hành Phần 3","slug":"thieu-nien-ca-hanh-phan-3","origin_name":"少年歌行 第三季","thumb_url":"thieu-nien-ca-hanh-phan-3-thumb.jpg","poster_url":"thieu-nien-ca-hanh-phan-3-poster.jpg","year":2023},{"modified":{"time":"2024-02-09T16:27:32.000Z"},"_id":"658544beefed8b7739da4440","name":"No. 7 West Mars St.","slug":"no-7-west-mars-st","origin_name":"火星西路7号","thumb_url":"no-7-west-mars-st-thumb.jpg","poster_url":"no-7-west-mars-st-poster.jpg","year":2023},{"modified":{"time":"2024-02-09T16:20:45.000Z"},"_id":"659fa0ed7074f826ccc65ddb","name":"Metallic Rouge","slug":"metallic-rouge","origin_name":"メタリックルージュ","thumb_url":"metallic-rouge-thumb.jpg","poster_url":"metallic-rouge-poster.jpg","year":2024},{"modified":{"time":"2024-02-08T22:23:13.000Z"},"_id":"65ba528cff05f1a47dff47c4","name":"A Mạch Tòng Quân","slug":"a-mach-tong-quan","origin_name":"Fighting for Love","thumb_url":"a-mach-tong-quan-thumb.jpg","poster_url":"a-mach-tong-quan-poster.jpg","year":2024},{"modified":{"time":"2024-02-08T22:12:18.000Z"},"_id":"65b1e8657074f826ccef9668","name":"Tình Yêu Ngàn Năm","slug":"tinh-yeu-ngan-nam","origin_name":"Thousands of Years of Love","thumb_url":"tinh-yeu-ngan-nam-thumb.jpg","poster_url":"tinh-yeu-ngan-nam-poster.jpg","year":2024},{"modified":{"time":"2024-02-08T22:11:02.000Z"},"_id":"65bb377dff05f1a47dffd50b","name":"Phệ Tâm","slug":"phe-tam","origin_name":"Broken the Heart","thumb_url":"phe-tam-thumb.jpg","poster_url":"phe-tam-poster.jpg","year":2024}],"pathImage":"https://img.ophim11.cc/uploads/movies/","pagination":{"totalItems":25317,"totalItemsPerPage":24,"currentPage":1,"totalPages":1055}}