{"status":true,"items":[{"modified":{"time":"2024-01-17T11:27:36.000Z"},"_id":"62260074eb35da19972dc82e","name":"Xe buýt giới ảo","origin_name":"The Magic Bus","thumb_url":"xe-buyt-gioi-ao-thumb.jpg","slug":"xe-buyt-gioi-ao","year":2018,"poster_url":"xe-buyt-gioi-ao-poster.jpg"},{"modified":{"time":"2024-01-17T11:27:23.000Z"},"_id":"62260067eb35da19972dc81c","name":"Yêu một đối tác","origin_name":"Fall in Love with A Partner","thumb_url":"yeu-mot-doi-tac-thumb.jpg","slug":"yeu-mot-doi-tac","year":2018,"poster_url":"yeu-mot-doi-tac-poster.jpg"},{"modified":{"time":"2024-01-17T11:27:06.000Z"},"_id":"6226005aeb35da19972dc804","name":"Đạo trường Công phu","origin_name":"Kongfu Taoist Master","thumb_url":"dao-truong-cong-phu-thumb.jpg","slug":"dao-truong-cong-phu","year":2018,"poster_url":"dao-truong-cong-phu-poster.jpg"},{"modified":{"time":"2024-01-17T11:26:54.000Z"},"_id":"62260059eb35da19972dc7f9","name":"Yêu nhầm tiếp viên hàng không mạo danh","origin_name":"Fake and Empty","thumb_url":"yeu-nham-tiep-vien-hang-khong-mao-danh-thumb.jpg","slug":"yeu-nham-tiep-vien-hang-khong-mao-danh","year":2018,"poster_url":"yeu-nham-tiep-vien-hang-khong-mao-danh-poster.jpg"},{"modified":{"time":"2024-01-17T11:26:38.000Z"},"_id":"62260041eb35da19972dc7cb","name":"Những đứa trẻ to xác 2","origin_name":"Grown Ups 2","thumb_url":"nhung-dua-tre-to-xac-2-thumb.jpg","slug":"nhung-dua-tre-to-xac-2","year":2013,"poster_url":"nhung-dua-tre-to-xac-2-poster.jpg"},{"modified":{"time":"2024-01-17T11:26:13.000Z"},"_id":"6226002beb35da19972dc7a4","name":"Tước tích","origin_name":"L.O.R.D.: Legend of Ravaging Dynasties","thumb_url":"tuoc-tich-thumb.jpg","slug":"tuoc-tich","year":2016,"poster_url":"tuoc-tich-poster.jpg"},{"modified":{"time":"2024-01-16T22:55:02.000Z"},"_id":"65a6a63d7074f826ccdf8334","name":"Hành Trình Đến Bethlehem","slug":"hanh-trinh-den-bethlehem","origin_name":"Journey to Bethlehem","thumb_url":"hanh-trinh-den-bethlehem-thumb.jpg","poster_url":"hanh-trinh-den-bethlehem-poster.jpg","year":2023},{"modified":{"time":"2024-01-16T22:50:50.000Z"},"_id":"65a6a5d631d8a2b99eb3739e","name":"Massage Parlor Murders!","slug":"massage-parlor-murders","origin_name":"Massage Parlor Murders!","thumb_url":"massage-parlor-murders-thumb.jpg","poster_url":"massage-parlor-murders-poster.jpg","year":1973},{"modified":{"time":"2024-01-16T22:45:53.000Z"},"_id":"65a6a4ae7074f826ccdf7987","name":"Perfect Strangers","slug":"perfect-strangers","origin_name":"Perfect Strangers","thumb_url":"perfect-strangers-thumb.jpg","poster_url":"perfect-strangers-poster.jpg","year":1984},{"modified":{"time":"2024-01-16T22:41:50.000Z"},"_id":"65a6a3bd7074f826ccdf7391","name":"Come Drink with Me","slug":"come-drink-with-me","origin_name":"Come Drink with Me","thumb_url":"come-drink-with-me-thumb.jpg","poster_url":"come-drink-with-me-poster.jpg","year":1966},{"modified":{"time":"2024-01-16T22:34:21.000Z"},"_id":"65a6a1fa31d8a2b99eb35e23","name":"Khát Khao Thầm Kín","slug":"khat-khao-tham-kin","origin_name":"Hidden Desire ","thumb_url":"khat-khao-tham-kin-thumb.jpg","poster_url":"khat-khao-tham-kin-poster.jpg","year":1991},{"modified":{"time":"2024-01-16T22:29:11.000Z"},"_id":"65a6a0c531d8a2b99eb3568d","name":"Song Chiến","slug":"song-chien","origin_name":"Warriors Two","thumb_url":"song-chien-thumb.jpg","poster_url":"song-chien-poster.jpg","year":1978},{"modified":{"time":"2024-01-15T22:28:23.000Z"},"_id":"65a54f157074f826ccd67a28","name":"Jiang Hu: The Triad Zone","slug":"jiang-hu-the-triad-zone","origin_name":"Jiang Hu: The Triad Zone","thumb_url":"jiang-hu-the-triad-zone-thumb.jpg","poster_url":"jiang-hu-the-triad-zone-poster.jpg","year":2000},{"modified":{"time":"2024-01-15T22:27:29.000Z"},"_id":"65a54edf7074f826ccd676dd","name":"Killing Them Softly","slug":"killing-them-softly","origin_name":"Killing Them Softly","thumb_url":"killing-them-softly-thumb.jpg","poster_url":"killing-them-softly-poster.jpg","year":2012},{"modified":{"time":"2024-01-15T22:26:40.000Z"},"_id":"65a5158f31d8a2b99ea79f4a","name":"Quigley Down Under","slug":"quigley-down-under","origin_name":"Quigley Down Under","thumb_url":"quigley-down-under-thumb.jpg","poster_url":"quigley-down-under-poster.jpg","year":1990},{"modified":{"time":"2024-01-15T20:23:31.000Z"},"_id":"65a0f3d17074f826cccd7c43","name":"Chàng Trai Nuốt Chửng Vũ Trụ","slug":"boy-swallows-universe","origin_name":"Boy Swallows Universe","thumb_url":"boy-swallows-universe-thumb.jpg","poster_url":"boy-swallows-universe-poster.jpg","year":2024},{"modified":{"time":"2024-01-15T19:50:36.000Z"},"_id":"65a52a1c31d8a2b99ea8ad44","name":"Đá Vàng (Phần 2)","slug":"da-vang-phan-2","origin_name":"Yellowstone (Season 2)","thumb_url":"da-vang-phan-2-thumb.jpg","poster_url":"da-vang-phan-2-poster.jpg","year":2019},{"modified":{"time":"2024-01-15T19:49:41.000Z"},"_id":"65a529e531d8a2b99ea8a8d7","name":"Đá Vàng (Phần 1)","slug":"da-vang-phan-1","origin_name":"Yellowstone (Season 1)","thumb_url":"da-vang-phan-1-thumb.jpg","poster_url":"da-vang-phan-1-poster.jpg","year":2018},{"modified":{"time":"2024-01-15T19:32:40.000Z"},"_id":"65a523e07074f826ccd489cd","name":"Băng Qua Biển Giận Dữ","slug":"bang-qua-bien-gian-du","origin_name":"Across the Furious Sea","thumb_url":"bang-qua-bien-gian-du-thumb.jpg","poster_url":"bang-qua-bien-gian-du-poster.jpg","year":2023},{"modified":{"time":"2024-01-15T18:44:31.000Z"},"_id":"65a519d17074f826ccd40508","name":"maboroshi","slug":"maboroshi","origin_name":"maboroshi","thumb_url":"maboroshi-thumb.jpg","poster_url":"maboroshi-poster.jpg","year":2023},{"modified":{"time":"2024-01-15T18:03:52.000Z"},"_id":"6274deed3a2c0c6289bdb9a0","name":"Thần Võ Thiên Tôn","origin_name":"The  Legend of  Sky Lord","thumb_url":"than-vo-thien-ton-thumb.jpg","slug":"than-vo-thien-ton","year":2020,"poster_url":"than-vo-thien-ton-poster.jpg"},{"modified":{"time":"2024-01-15T18:03:35.000Z"},"_id":"6589510fefed8b7739df1bc0","name":"Pit Babe The Series","slug":"pit-babe-the-series","origin_name":"Pit Babe The Series","thumb_url":"pit-babe-the-series-thumb.jpg","poster_url":"pit-babe-the-series-poster.jpg","year":2023},{"modified":{"time":"2024-01-15T18:03:01.000Z"},"_id":"658950652f36c295ed5ec0f4","name":"For Him","slug":"for-him","origin_name":"For Him","thumb_url":"for-him-thumb.jpg","poster_url":"for-him-poster.jpg","year":2023},{"modified":{"time":"2024-01-15T18:02:46.000Z"},"_id":"65895034efed8b7739df15a9","name":"Dead Friend Forever","slug":"dead-friend-forever","origin_name":"Dead Friend Forever - DFF: Uncovered Version","thumb_url":"dead-friend-forever-thumb.jpg","poster_url":"dead-friend-forever-poster.jpg","year":2023}],"pathImage":"https://img.ophim11.cc/uploads/movies/","pagination":{"totalItems":25309,"totalItemsPerPage":24,"currentPage":13,"totalPages":1055}}