{"status":true,"items":[{"modified":{"time":"2024-01-13T14:04:55.000Z"},"_id":"622602dceb35da19972dccc6","name":"Cuộc thi","origin_name":"the Competition","thumb_url":"cuoc-thi-thumb.jpg","slug":"cuoc-thi","year":2018,"poster_url":"cuoc-thi-poster.jpg"},{"modified":{"time":"2024-01-13T00:00:19.000Z"},"_id":"65a1701a7074f826ccce4ac4","name":"Đừng Chọc Anh Nữa Mà, Nagatoro! (S2)","slug":"dung-choc-anh-nua-ma-nagatoro-s2","origin_name":"Đừng Chọc Anh Nữa Mà, Nagatoro! ","thumb_url":"dung-choc-anh-nua-ma-nagatoro-s2-thumb.jpg","poster_url":"dung-choc-anh-nua-ma-nagatoro-s2-poster.jpg","year":2021},{"modified":{"time":"2024-01-12T23:47:56.000Z"},"_id":"65a16d3931d8a2b99ea21cd2","name":"Họa Giang Hồ Chi Bất Lương Nhân (Phần 4)","slug":"hoa-giang-ho-chi-bat-luong-nhan-phan-4","origin_name":"Họa Giang Hồ Chi Bất Lương Nhân (Phần 4)","thumb_url":"hoa-giang-ho-chi-bat-luong-nhan-phan-4-thumb.jpg","poster_url":"hoa-giang-ho-chi-bat-luong-nhan-phan-4-poster.jpg","year":2021},{"modified":{"time":"2024-01-12T17:41:46.000Z"},"_id":"659a568b7074f826ccbf6016","name":"Echo","slug":"echo","origin_name":"Echo","thumb_url":"echo-thumb.jpg","poster_url":"echo-poster.jpg","year":2024},{"modified":{"time":"2024-01-12T16:14:50.000Z"},"_id":"65a1030a7074f826cccdb082","name":"Khởi Nghiệp (bản Thái) ","slug":"khoi-nghiep-ban-thai","origin_name":"Start-Up","thumb_url":"khoi-nghiep-ban-thai-thumb.jpg","poster_url":"khoi-nghiep-ban-thai-poster.jpg","year":2024},{"modified":{"time":"2024-01-12T15:34:54.000Z"},"_id":"65a0f54b7074f826cccd8983","name":"Lift: Vụ Trộm Trên Không","slug":"lift-vu-trom-tren-khong","origin_name":"Lift","thumb_url":"lift-vu-trom-tren-khong-thumb.jpg","poster_url":"lift-vu-trom-tren-khong-poster.jpg","year":2024},{"modified":{"time":"2024-01-12T14:45:40.000Z"},"_id":"654dc733aa7d07ce5c7b984e","name":"Cuộc Chiến Không Gian (Phần 4)","slug":"cuoc-chien-khong-gian-phan-4","origin_name":"For All Mankind Season 4","thumb_url":"cuoc-chien-khong-gian-phan-4-thumb.jpg","poster_url":"cuoc-chien-khong-gian-phan-4-poster.jpg","year":2023},{"modified":{"time":"2024-01-12T14:30:30.000Z"},"_id":"65534c2c03f63c57cb938874","name":"Monarch: Thế Giới Quái Thú","slug":"monarch-the-gioi-quai-thu","origin_name":"Monarch: Legacy of Monsters","thumb_url":"monarch-the-gioi-quai-thu-thumb.jpg","poster_url":"monarch-the-gioi-quai-thu-poster.jpg","year":2023},{"modified":{"time":"2024-01-12T13:04:46.000Z"},"_id":"6226057beb35da19972dd182","name":"Thời thơ ấu","origin_name":"Boyhood","thumb_url":"thoi-tho-au-thumb.jpg","slug":"thoi-tho-au","year":2014,"poster_url":"thoi-tho-au-poster.jpg"},{"modified":{"time":"2024-01-12T13:04:08.000Z"},"_id":"6226055aeb35da19972dd161","name":"Bão lửa","origin_name":"Firestorm","thumb_url":"bao-lua-thumb.jpg","slug":"bao-lua","year":2013,"poster_url":"bao-lua-poster.jpg"},{"modified":{"time":"2024-01-12T13:03:54.000Z"},"_id":"62260500eb35da19972dd0a2","name":"Chỉ giữ thanh xuân, không giữ anh","origin_name":"You Broke into My Youth","thumb_url":"chi-giu-thanh-xuan-khong-giu-anh-thumb.jpg","slug":"chi-giu-thanh-xuan-khong-giu-anh","year":2017,"poster_url":"chi-giu-thanh-xuan-khong-giu-anh-poster.jpg"},{"modified":{"time":"2024-01-12T13:03:37.000Z"},"_id":"622604faeb35da19972dd095","name":"Học viện siêu anh hùng: Người hùng trỗi dậy","origin_name":"My Hero Academia: Heroes Rising","thumb_url":"hoc-vien-sieu-anh-hung-nguoi-hung-troi-day-thumb.jpg","slug":"hoc-vien-sieu-anh-hung-nguoi-hung-troi-day","year":2019,"poster_url":"hoc-vien-sieu-anh-hung-nguoi-hung-troi-day-poster.jpg"},{"modified":{"time":"2024-01-12T13:03:21.000Z"},"_id":"622604f0eb35da19972dd07d","name":"FYRE: bữa tiệc đáng thất vọng","origin_name":"FYRE: The Greatest Party That Never Happened","thumb_url":"fyre-bua-tiec-dang-that-vong-thumb.jpg","slug":"fyre-bua-tiec-dang-that-vong","year":2019,"poster_url":"fyre-bua-tiec-dang-that-vong-poster.jpg"},{"modified":{"time":"2024-01-12T13:02:34.000Z"},"_id":"622604d0eb35da19972dd05d","name":"Chín bang 1","origin_name":"Nine States 1","thumb_url":"chin-bang-1-thumb.jpg","slug":"chin-bang-1","year":2018,"poster_url":"chin-bang-1-poster.jpg"},{"modified":{"time":"2024-01-12T13:02:18.000Z"},"_id":"622604c9eb35da19972dd046","name":"Cớm tập sự 2","origin_name":"Ride Along 2","thumb_url":"com-tap-su-2-thumb.jpg","slug":"com-tap-su-2","year":2016,"poster_url":"com-tap-su-2-poster.jpg"},{"modified":{"time":"2024-01-12T13:02:01.000Z"},"_id":"622604c7eb35da19972dd03d","name":"Kẻ báo thù","origin_name":"Revenger","thumb_url":"ke-bao-thu-thumb.jpg","slug":"ke-bao-thu","year":2018,"poster_url":"ke-bao-thu-poster.jpg"},{"modified":{"time":"2024-01-12T13:01:37.000Z"},"_id":"622604aeeb35da19972dd012","name":"Chinh phục quỷ chiến tranh Samurai","origin_name":"Conquering the Demons of Ghost Samurai War","thumb_url":"chinh-phuc-quy-chien-tranh-samurai-thumb.jpg","slug":"chinh-phuc-quy-chien-tranh-samurai","year":2018,"poster_url":"chinh-phuc-quy-chien-tranh-samurai-poster.jpg"},{"modified":{"time":"2024-01-12T13:01:25.000Z"},"_id":"622604aaeb35da19972dcfee","name":"Huyền thoại đất liền và đại dương","origin_name":"Tales from Earthsea","thumb_url":"huyen-thoai-dat-lien-va-dai-duong-thumb.jpg","slug":"huyen-thoai-dat-lien-va-dai-duong","year":2006,"poster_url":"huyen-thoai-dat-lien-va-dai-duong-poster.jpg"},{"modified":{"time":"2024-01-12T13:01:14.000Z"},"_id":"62260481eb35da19972dcfc3","name":"Chơi game cùng anh","origin_name":"Mr. Lei and His Friends","thumb_url":"choi-game-cung-anh-thumb.jpg","slug":"choi-game-cung-anh","year":2018,"poster_url":"choi-game-cung-anh-poster.jpg"},{"modified":{"time":"2024-01-12T13:00:58.000Z"},"_id":"6226048beb35da19972dcfcf","name":"Brooklyn không mẹ","origin_name":"Motherless Brooklyn","thumb_url":"brooklyn-khong-me-thumb.jpg","slug":"brooklyn-khong-me","year":2019,"poster_url":"brooklyn-khong-me-poster.jpg"},{"modified":{"time":"2024-01-12T13:00:42.000Z"},"_id":"6226046ceb35da19972dcf8a","name":"Cuộc phỏng vấn","origin_name":"The Interview","thumb_url":"cuoc-phong-van-thumb.jpg","slug":"cuoc-phong-van","year":2014,"poster_url":"cuoc-phong-van-poster.jpg"},{"modified":{"time":"2024-01-12T13:00:23.000Z"},"_id":"62260460eb35da19972dcf7d","name":"Lãng khách Kenshin: Đại hỏa Kyoto","origin_name":"Rurouni Kenshin: Kyoto Inferno","thumb_url":"lang-khach-kenshin-dai-hoa-kyoto-thumb.jpg","slug":"lang-khach-kenshin-dai-hoa-kyoto","year":2014,"poster_url":"lang-khach-kenshin-dai-hoa-kyoto-poster.jpg"},{"modified":{"time":"2024-01-12T13:00:05.000Z"},"_id":"6226045eeb35da19972dcf72","name":"Chưởng môn đời cuối","origin_name":"The Last of Head","thumb_url":"chuong-mon-doi-cuoi-thumb.jpg","slug":"chuong-mon-doi-cuoi","year":2016,"poster_url":"chuong-mon-doi-cuoi-poster.jpg"},{"modified":{"time":"2024-01-12T12:58:13.000Z"},"_id":"6226044aeb35da19972dcf51","name":"Ỷ Thiên Đồ Long Ký: Ma giáo giáo chủ","origin_name":"Kung Fu Cult Master","thumb_url":"y-thien-do-long-ky-ma-giao-giao-chu-thumb.jpg","slug":"y-thien-do-long-ky-ma-giao-giao-chu","year":1993,"poster_url":"y-thien-do-long-ky-ma-giao-giao-chu-poster.jpg"}],"pathImage":"https://img.ophim10.cc/uploads/movies/","pagination":{"totalItems":25261,"totalItemsPerPage":24,"currentPage":14,"totalPages":1053}}