{"status":true,"items":[{"modified":{"time":"2024-02-02T12:32:32.000Z"},"_id":"65a7f84731d8a2b99eb57c2d","name":"Đòn bẩy (Phần 1)","slug":"leverage-redemption-phan-1","origin_name":"Leverage: Redemption (Season 1)","thumb_url":"leverage-redemption-phan-1-thumb.jpg","poster_url":"leverage-redemption-phan-1-poster.jpg","year":2021},{"modified":{"time":"2024-02-02T11:56:36.000Z"},"_id":"62a4ced67a956fb5db09cc02","name":"Thôn Tính Bầu Trời","origin_name":"Swallowed Star","thumb_url":"thon-tinh-bau-troi-thumb.jpg","poster_url":"thon-tinh-bau-troi-poster.jpg","slug":"thon-tinh-bau-troi","year":2020},{"modified":{"time":"2024-02-02T09:28:01.000Z"},"_id":"65bc532f5540d59e3fdc39a4","name":"Tế Công 1997","slug":"te-cong-1997","origin_name":"Tế Công ","thumb_url":"te-cong-1997-thumb.jpg","poster_url":"te-cong-1997-poster.jpg","year":1997},{"modified":{"time":"2024-02-02T09:19:48.000Z"},"_id":"65bc51425540d59e3fdc3459","name":"Võ Hiệp Hoàng Phi Hồng","slug":"vo-hiep-hoang-phi-hong","origin_name":"The Return Of Wong Fei Hung","thumb_url":"vo-hiep-hoang-phi-hong-thumb.jpg","poster_url":"vo-hiep-hoang-phi-hong-poster.jpg","year":1984},{"modified":{"time":"2024-02-01T23:18:08.000Z"},"_id":"65ab698431d8a2b99eba3988","name":"Lâu Rồi Chưa Yêu","slug":"lau-roi-chua-yeu","origin_name":"LTNS","thumb_url":"lau-roi-chua-yeu-thumb.jpg","poster_url":"lau-roi-chua-yeu-poster.jpg","year":2024},{"modified":{"time":"2024-02-01T23:17:19.000Z"},"_id":"650c796d1e9ad2fe0c3a96a0","name":"Ba chị em (Phần 3)","slug":"ba-chi-em-phan-3","origin_name":"Uc Kiz Kardes","thumb_url":"ba-chi-em-phan-3-thumb.jpg","poster_url":"ba-chi-em-phan-3-poster.jpg","year":2022},{"modified":{"time":"2024-02-01T23:15:37.000Z"},"_id":"6551d582aa7d07ce5c824fd6","name":"Chiến Tranh \tGoryeo-Khitan","slug":"chien-tranh-goryeo-khitan","origin_name":"Korea-Khitan War","thumb_url":"chien-tranh-goryeo-khitan-thumb.jpg","poster_url":"chien-tranh-goryeo-khitan-poster.jpg","year":2023},{"modified":{"time":"2024-02-01T22:10:34.000Z"},"_id":"658154782f36c295ed48c67d","name":"Như Hoa Trên Cát","slug":"nhu-hoa-tren-cat","origin_name":"Like Flowers in Sand","thumb_url":"nhu-hoa-tren-cat-thumb.jpg","poster_url":"nhu-hoa-tren-cat-poster.jpg","year":2023},{"modified":{"time":"2024-02-01T22:07:17.000Z"},"_id":"65ba6a40ff05f1a47dff63e0","name":"Nữ Hoàng Ly Hôn","slug":"nu-hoang-ly-hon","origin_name":"Queen of Divorce","thumb_url":"nu-hoang-ly-hon-thumb.jpg","poster_url":"nu-hoang-ly-hon-poster.jpg","year":2024},{"modified":{"time":"2024-02-01T21:52:17.000Z"},"_id":"65a7f1b331d8a2b99eb55682","name":"Tiên Kiếm Kỳ Hiệp 4 ","slug":"tien-kiem-ky-hiep-4","origin_name":"Sword and Fairy 4","thumb_url":"tien-kiem-ky-hiep-4-thumb.jpg","poster_url":"tien-kiem-ky-hiep-4-poster.jpg","year":2024},{"modified":{"time":"2024-02-01T16:36:06.000Z"},"_id":"65bb62d7ff05f1a47d001938","name":"Phong Thần Lôi Chấn Tử","slug":"phong-than-loi-chan-tu","origin_name":"League of Gods: Leizhenzi","thumb_url":"phong-than-loi-chan-tu-thumb.jpg","poster_url":"phong-than-loi-chan-tu-poster.jpg","year":2024},{"modified":{"time":"2024-02-01T16:15:41.000Z"},"_id":"65bb5faf5540d59e3fdb18b9","name":"Họa Giang Hồ: Bất Lương Soái","slug":"hoa-giang-ho-bat-luong-soai","origin_name":"The Story of Yuan Tiangang","thumb_url":"hoa-giang-ho-bat-luong-soai-thumb.jpg","poster_url":"hoa-giang-ho-bat-luong-soai-poster.jpg","year":2024},{"modified":{"time":"2024-02-01T15:49:21.000Z"},"_id":"659ec57831d8a2b99e9873df","name":"Cherry Magic: 30 Tuổi Vẫn Còn \"Zin\" Sẽ Biến Thành Phù Thủy","slug":"cherry-magic-30-tuoi-van-con-zin-se-bien-thanh-phu-thuy","origin_name":"Cherry Magic! Thirty Years of Virginity Can Make You a Wizard?!","thumb_url":"cherry-magic-30-tuoi-van-con-zin-se-bien-thanh-phu-thuy-thumb.jpg","poster_url":"cherry-magic-30-tuoi-van-con-zin-se-bien-thanh-phu-thuy-poster.jpg","year":2024},{"modified":{"time":"2024-02-01T14:10:40.000Z"},"_id":"659fa0ed7074f826ccc65ddb","name":"Metallic Rouge","slug":"metallic-rouge","origin_name":"メタリックルージュ","thumb_url":"metallic-rouge-thumb.jpg","poster_url":"metallic-rouge-poster.jpg","year":2024},{"modified":{"time":"2024-02-01T12:07:02.000Z"},"_id":"65a7f8ea7074f826cce18dcf","name":"Hồ Sơ Tội Phạm","slug":"ho-so-toi-pham","origin_name":"Criminal Record","thumb_url":"ho-so-toi-pham-thumb.jpg","poster_url":"ho-so-toi-pham-poster.jpg","year":2024},{"modified":{"time":"2024-02-01T00:19:11.000Z"},"_id":"658fcbfc31d8a2b99e7a19fc","name":"Cửa Hàng Sát Thủ","slug":"cua-hang-sat-thu","origin_name":"A Shop for Killers","thumb_url":"cua-hang-sat-thu-thumb.jpg","poster_url":"cua-hang-sat-thu-poster.jpg","year":2024},{"modified":{"time":"2024-01-31T21:16:11.000Z"},"_id":"649351a09f4442ce4d284708","name":"Già Thiên","slug":"gia-thien","origin_name":"Shrouding the Heavens","thumb_url":"gia-thien-thumb.jpg","poster_url":"gia-thien-poster.jpg","year":2023},{"modified":{"time":"2024-01-31T20:51:16.000Z"},"_id":"65a4a5a631d8a2b99ea5d2f7","name":"Đại Giang Đại Hà (Phần 3)","slug":"like-a-flowing-river","origin_name":"Like a Flowing River","thumb_url":"like-a-flowing-river-thumb.jpg","poster_url":"like-a-flowing-river-poster.jpg","year":2024},{"modified":{"time":"2024-01-31T17:45:11.000Z"},"_id":"65abfc587074f826cce72743","name":"Tàng Dược Lệnh","slug":"tang-duoc-lenh","origin_name":"The Divine Healer","thumb_url":"tang-duoc-lenh-thumb.jpg","poster_url":"tang-duoc-lenh-poster.jpg","year":2024},{"modified":{"time":"2024-01-31T15:05:58.000Z"},"_id":"64f22101245ac9c0d194d646","name":"My Universe: Vũ Trụ Của Tôi","slug":"my-universe-vu-tru-cua-toi","origin_name":"My Universe","thumb_url":"my-universe-vu-tru-cua-toi-thumb.jpg","poster_url":"my-universe-vu-tru-cua-toi-poster.jpg","year":2023},{"modified":{"time":"2024-01-31T13:50:02.000Z"},"_id":"6224e7feeb35da19972d88b4","name":"kẻ Nhật cũng điên cuồng","origin_name":"Crazy Invaders","thumb_url":"ke-nhat-cung-dien-cuong-thumb.jpg","slug":"ke-nhat-cung-dien-cuong","year":2018,"poster_url":"ke-nhat-cung-dien-cuong-poster.jpg"},{"modified":{"time":"2024-01-31T13:49:50.000Z"},"_id":"6224e7f5eb35da19972d88a3","name":"Tà tâm muội ảnh","origin_name":"Going Back to the True Love","thumb_url":"ta-tam-muoi-anh-thumb.jpg","slug":"ta-tam-muoi-anh","year":2017,"poster_url":"ta-tam-muoi-anh-poster.jpg"},{"modified":{"time":"2024-01-31T13:49:36.000Z"},"_id":"6224e7eceb35da19972d8897","name":"Kết thúc cô đảo","origin_name":"The End of the Lonely Island","thumb_url":"ket-thuc-co-dao-thumb.jpg","slug":"ket-thuc-co-dao","year":2017,"poster_url":"ket-thuc-co-dao-poster.jpg"},{"modified":{"time":"2024-01-31T13:49:22.000Z"},"_id":"6224e7dceb35da19972d8881","name":"Khế ước thời gian","origin_name":"The Contract","thumb_url":"khe-uoc-thoi-gian-thumb.jpg","slug":"khe-uoc-thoi-gian","year":2017,"poster_url":"khe-uoc-thoi-gian-poster.jpg"}],"pathImage":"https://img.ophim11.cc/uploads/movies/","pagination":{"totalItems":25309,"totalItemsPerPage":24,"currentPage":4,"totalPages":1055}}