{"status":true,"items":[{"modified":{"time":"2024-01-19T08:25:26.000Z"},"_id":"6225ff40eb35da19972dc6de","name":"Svaha: Ngón tay thứ sáu","origin_name":"Svaha: The Sixth Finger","thumb_url":"svaha-ngon-tay-thu-sau-thumb.jpg","slug":"svaha-ngon-tay-thu-sau","year":2019,"poster_url":"svaha-ngon-tay-thu-sau-poster.jpg"},{"modified":{"time":"2024-01-19T08:25:06.000Z"},"_id":"6225ff3deb35da19972dc6d2","name":"Anh Bưu xông phụng thiên chi Nằm mơ cũng không nghĩ đến","origin_name":"A Pigman&#x27;&#x27;s Battle Against the Invaders","thumb_url":"anh-buu-xong-phung-thien-chi-nam-mo-cung-khong-nghi-den-thumb.jpg","slug":"anh-buu-xong-phung-thien-chi-nam-mo-cung-khong-nghi-den","year":2018,"poster_url":"anh-buu-xong-phung-thien-chi-nam-mo-cung-khong-nghi-den-poster.jpg"},{"modified":{"time":"2024-01-19T08:24:48.000Z"},"_id":"6225ff2deb35da19972dc6bc","name":"Anh hùng lạc lỗi","origin_name":"Lost Hero","thumb_url":"anh-hung-lac-loi-thumb.jpg","slug":"anh-hung-lac-loi","year":2018,"poster_url":"anh-hung-lac-loi-poster.jpg"},{"modified":{"time":"2024-01-19T08:24:10.000Z"},"_id":"6225ff1deb35da19972dc6aa","name":"Anh hùng máu nóng","origin_name":"Hero Hot Blooded","thumb_url":"anh-hung-mau-nong-thumb.jpg","slug":"anh-hung-mau-nong","year":2018,"poster_url":"anh-hung-mau-nong-poster.jpg"},{"modified":{"time":"2024-01-19T08:23:58.000Z"},"_id":"6225ff0eeb35da19972dc68f","name":"Anh hùng tư nhân","origin_name":"Private Hero","thumb_url":"anh-hung-tu-nhan-thumb.jpg","slug":"anh-hung-tu-nhan","year":2018,"poster_url":"anh-hung-tu-nhan-poster.jpg"},{"modified":{"time":"2024-01-19T08:23:44.000Z"},"_id":"6225feffeb35da19972dc66f","name":"Bác sĩ đạo mộng","origin_name":"Doctor. Dream","thumb_url":"bac-si-dao-mong-thumb.jpg","slug":"bac-si-dao-mong","year":2018,"poster_url":"bac-si-dao-mong-poster.jpg"},{"modified":{"time":"2024-01-19T08:23:03.000Z"},"_id":"6225feffeb35da19972dc66b","name":"Thần thoại","origin_name":"The Myth","thumb_url":"than-thoai-thumb.jpg","slug":"than-thoai","year":2005,"poster_url":"than-thoai-poster.jpg"},{"modified":{"time":"2024-01-19T08:22:01.000Z"},"_id":"6225feedeb35da19972dc657","name":"Bạn gái AI","origin_name":"AI Girlfriend","thumb_url":"ban-gai-ai-thumb.jpg","slug":"ban-gai-ai","year":2018,"poster_url":"ban-gai-ai-poster.jpg"},{"modified":{"time":"2024-01-19T08:21:38.000Z"},"_id":"6225fee5eb35da19972dc649","name":"Điệp ảnh kinh hồn","origin_name":"Protecting the National Treasure","thumb_url":"diep-anh-kinh-hon-thumb.jpg","slug":"diep-anh-kinh-hon","year":2017,"poster_url":"diep-anh-kinh-hon-poster.jpg"},{"modified":{"time":"2024-01-19T08:21:02.000Z"},"_id":"6225fed9eb35da19972dc632","name":"Bạn gái VR của tôi","origin_name":"My VR Girlfriend","thumb_url":"ban-gai-vr-cua-toi-thumb.jpg","slug":"ban-gai-vr-cua-toi","year":2018,"poster_url":"ban-gai-vr-cua-toi-poster.jpg"},{"modified":{"time":"2024-01-19T08:20:50.000Z"},"_id":"6225fec9eb35da19972dc607","name":"Bản sắc anh hùng","origin_name":"Hero Character","thumb_url":"ban-sac-anh-hung-2017-thumb.jpg","slug":"ban-sac-anh-hung-2017","year":2017,"poster_url":"ban-sac-anh-hung-2017-poster.jpg"},{"modified":{"time":"2024-01-19T08:20:34.000Z"},"_id":"6225febaeb35da19972dc5ec","name":"Điệp chiến sân trường","origin_name":"A Spy Game In the Campus","thumb_url":"diep-chien-san-truong-thumb.jpg","slug":"diep-chien-san-truong","year":2017,"poster_url":"diep-chien-san-truong-poster.jpg"},{"modified":{"time":"2024-01-19T08:20:21.000Z"},"_id":"6225feb0eb35da19972dc5c9","name":"Mùi cỏ cháy","origin_name":"The Scent of Burning Grass","thumb_url":"mui-co-chay-thumb.jpg","slug":"mui-co-chay","year":2011,"poster_url":"mui-co-chay-poster.jpg"},{"modified":{"time":"2024-01-19T08:20:09.000Z"},"_id":"6225fe9beb35da19972dc5a8","name":"Đoạt mệnh hắc kim","origin_name":"Deadly Black Gold","thumb_url":"doat-menh-hac-kim-thumb.jpg","slug":"doat-menh-hac-kim","year":2017,"poster_url":"doat-menh-hac-kim-poster.jpg"},{"modified":{"time":"2024-01-18T23:04:24.000Z"},"_id":"65a94c0631d8a2b99eb73d71","name":"Don Juan DeMarco","slug":"don-juan-demarco","origin_name":"Don Juan DeMarco","thumb_url":"don-juan-demarco-thumb.jpg","poster_url":"don-juan-demarco-poster.jpg","year":1994},{"modified":{"time":"2024-01-18T23:03:16.000Z"},"_id":"65a94bc231d8a2b99eb73b45","name":"Emanuelle nera: Orient reportage","slug":"emanuelle-nera-orient-reportage","origin_name":"Emanuelle in Bangkok","thumb_url":"emanuelle-nera-orient-reportage-thumb.jpg","poster_url":"emanuelle-nera-orient-reportage-poster.jpg","year":1976},{"modified":{"time":"2024-01-18T23:02:21.000Z"},"_id":"65a94b8b31d8a2b99eb7392e","name":"The Ballad of Narayama","slug":"the-ballad-of-narayama","origin_name":"The Ballad of Narayama","thumb_url":"the-ballad-of-narayama-thumb.jpg","poster_url":"the-ballad-of-narayama-poster.jpg","year":1983},{"modified":{"time":"2024-01-18T21:06:21.000Z"},"_id":"65a9305b7074f826cce31d8c","name":"Nữ Tặc Nhà Giàu","slug":"nu-tac-nha-giau","origin_name":"The House Bunny","thumb_url":"nu-tac-nha-giau-thumb.jpg","poster_url":"nu-tac-nha-giau-poster.jpg","year":2008},{"modified":{"time":"2024-01-18T21:04:35.000Z"},"_id":"65a92ff131d8a2b99eb71b96","name":"Jersey Girl","slug":"jersey-girl","origin_name":"Jersey Girl","thumb_url":"jersey-girl-thumb.jpg","poster_url":"jersey-girl-poster.jpg","year":2004},{"modified":{"time":"2024-01-18T19:52:13.000Z"},"_id":"659abc5f31d8a2b99e9312bc","name":"Lam Hỏa Diệt Quỷ (Phần 3)","slug":"lam-hoa-diet-quy-phan-3","origin_name":"Blue Exorcist Season 3","thumb_url":"lam-hoa-diet-quy-phan-3-thumb.jpg","poster_url":"lam-hoa-diet-quy-phan-3-poster.jpg","year":2024},{"modified":{"time":"2024-01-18T17:36:41.000Z"},"_id":"65a7f8ea7074f826cce18dcf","name":"Hồ Sơ Tội Phạm","slug":"ho-so-toi-pham","origin_name":"Criminal Record","thumb_url":"ho-so-toi-pham-thumb.jpg","poster_url":"ho-so-toi-pham-poster.jpg","year":2024},{"modified":{"time":"2024-01-18T14:47:45.000Z"},"_id":"650713d4fe8e2316c07eff1c","name":"Người Nào Đó","slug":"nguoi-nao-do","origin_name":"Bambaşka Biri","thumb_url":"nguoi-nao-do-thumb.jpg","poster_url":"nguoi-nao-do-poster.jpg","year":2023},{"modified":{"time":"2024-01-18T14:43:30.000Z"},"_id":"65300d82e2f0dc639fd04f6c","name":"Thiên Quan Tứ Phúc Mùa 2","slug":"thien-quan-tu-phuc-mua-2","origin_name":"天官赐福 第二季","thumb_url":"thien-quan-tu-phuc-mua-2-thumb.jpg","poster_url":"thien-quan-tu-phuc-mua-2-poster.jpg","year":2023},{"modified":{"time":"2024-01-18T13:16:03.000Z"},"_id":"65a5d8637074f826ccde14e9","name":"Liệt Ái","slug":"liet-ai","origin_name":"Passionate Love","thumb_url":"liet-ai-thumb.jpg","poster_url":"liet-ai-poster.jpg","year":2023}],"pathImage":"https://img.ophim10.cc/uploads/movies/","pagination":{"totalItems":25262,"totalItemsPerPage":24,"currentPage":8,"totalPages":1053}}