{"status":true,"items":[{"modified":{"time":"2023-10-17T11:17:37.000Z"},"_id":"62346a673c735a9a446e22a4","name":"Hell Fest","origin_name":"Hell Fest","thumb_url":"hell-fest-thumb.jpg","slug":"hell-fest","year":2018,"poster_url":"hell-fest-poster.jpg"},{"modified":{"time":"2023-10-17T11:17:20.000Z"},"_id":"62346a5e3c735a9a446e2293","name":"Héc-Quyn","origin_name":"Hercules","thumb_url":"hec-quyn-thumb.jpg","slug":"hec-quyn","year":2014,"poster_url":"hec-quyn-poster.jpg"},{"modified":{"time":"2023-10-17T11:15:50.000Z"},"_id":"62346a553c735a9a446e2282","name":"Immortals","origin_name":"Immortals","thumb_url":"immortals-thumb.jpg","slug":"immortals","year":2011,"poster_url":"immortals-poster.jpg"},{"modified":{"time":"2023-10-17T11:15:37.000Z"},"_id":"62346a423c735a9a446e2260","name":"It: Chapter One","origin_name":"It: Chapter One","thumb_url":"it-chapter-one-thumb.jpg","slug":"it-chapter-one","year":2017,"poster_url":"it-chapter-one-poster.jpg"},{"modified":{"time":"2023-10-17T09:45:05.000Z"},"_id":"652df52e1e9ad2fe0c4e8513","name":"120 Nhịp Tim 1 Phút","slug":"120-nhip-tim-1-phut","origin_name":"BPM (Beats per Minute)","thumb_url":"120-nhip-tim-1-phut-thumb.jpg","poster_url":"120-nhip-tim-1-phut-poster.jpg","year":2017},{"modified":{"time":"2023-10-17T09:42:28.000Z"},"_id":"652df49360ad693b7ca887de","name":"Bố Già Hoàn Lương 2","slug":"bo-gia-hoan-luong-2","origin_name":"Analyze That","thumb_url":"bo-gia-hoan-luong-2-thumb.jpg","poster_url":"bo-gia-hoan-luong-2-poster.jpg","year":2002},{"modified":{"time":"2023-10-17T09:41:41.000Z"},"_id":"652df463fe8e2316c095f77b","name":"Bố Già Hoàn Lương","slug":"bo-gia-hoan-luong","origin_name":"Analyze This","thumb_url":"bo-gia-hoan-luong-thumb.jpg","poster_url":"bo-gia-hoan-luong-poster.jpg","year":1999},{"modified":{"time":"2023-10-17T09:37:43.000Z"},"_id":"652df36fe2f0dc639fcf0c65","name":"Elegy","slug":"elegy","origin_name":"Elegy","thumb_url":"elegy-thumb.jpg","poster_url":"elegy-poster.jpg","year":2008},{"modified":{"time":"2023-10-17T09:36:16.000Z"},"_id":"652df31ee2f0dc639fcf0b2d","name":"Mặt Trăng","slug":"mat-trang","origin_name":"Moon","thumb_url":"mat-trang-thumb.jpg","poster_url":"mat-trang-poster.jpg","year":2009},{"modified":{"time":"2023-10-17T09:34:02.000Z"},"_id":"652df29360ad693b7ca8814b","name":"Basic","slug":"basic","origin_name":"Basic","thumb_url":"basic-thumb.jpg","poster_url":"basic-poster.jpg","year":2003},{"modified":{"time":"2023-10-17T09:31:28.000Z"},"_id":"652df1fbaab68118a3af6c8a","name":"Qua Lỗ Khóa","slug":"qua-lo-khoa","origin_name":"In The Room","thumb_url":"qua-lo-khoa-thumb.jpg","poster_url":"qua-lo-khoa-poster.jpg","year":2015},{"modified":{"time":"2023-10-17T09:26:45.000Z"},"_id":"652df0d8fe8e2316c095ed00","name":"Lone Wolf McQuade","slug":"lone-wolf-mcquade","origin_name":"Lone Wolf McQuade","thumb_url":"lone-wolf-mcquade-thumb.jpg","poster_url":"lone-wolf-mcquade-poster.jpg","year":1983},{"modified":{"time":"2023-10-17T09:25:04.000Z"},"_id":"652df07860ad693b7ca87b4d","name":"Tình Ngang Trái","slug":"tinh-ngang-trai","origin_name":"Love Actually... Sucks!","thumb_url":"tinh-ngang-trai-thumb.jpg","poster_url":"tinh-ngang-trai-poster.jpg","year":2012},{"modified":{"time":"2023-10-17T09:19:36.000Z"},"_id":"652def3625c3f47570e0a451","name":"Nhân Tình Đẳng Cấp","slug":"nhan-tinh-dang-cap","origin_name":"Maîtresse","thumb_url":"nhan-tinh-dang-cap-thumb.jpg","poster_url":"nhan-tinh-dang-cap-poster.jpg","year":1975},{"modified":{"time":"2023-10-17T09:16:01.000Z"},"_id":"652dee5eaab68118a3af632e","name":"Once Upon a Time… in Hollywood","slug":"once-upon-a-time-in-hollywood","origin_name":"Once Upon a Time… in Hollywood","thumb_url":"once-upon-a-time-in-hollywood-thumb.jpg","poster_url":"once-upon-a-time-in-hollywood-poster.jpg","year":2019},{"modified":{"time":"2023-10-17T09:13:00.000Z"},"_id":"652deda9aab68118a3af60d9","name":"Trả Đũa","slug":"tra-dua","origin_name":" Payback","thumb_url":"tra-dua-thumb.jpg","poster_url":"tra-dua-poster.jpg","year":1999},{"modified":{"time":"2023-10-17T09:06:11.000Z"},"_id":"652dec11aab68118a3af5d5c","name":"Dị Biến","slug":"di-bien","origin_name":"The Anomaly","thumb_url":"di-bien-thumb.jpg","poster_url":"di-bien-poster.jpg","year":2014},{"modified":{"time":"2023-10-16T23:40:51.000Z"},"_id":"64fd90a81e9ad2fe0c31d686","name":"Xác Sống: Daryl Dixon","slug":"xac-song-daryl-dixon","origin_name":"The Walking Dead: Daryl Dixon","thumb_url":"xac-song-daryl-dixon-thumb.jpg","poster_url":"xac-song-daryl-dixon-poster.jpg","year":2023},{"modified":{"time":"2023-10-16T22:30:19.000Z"},"_id":"652d5709aab68118a3af19eb","name":"Tay Súng Sát Thủ ","slug":"tay-sung-sat-thu","origin_name":"El Topo","thumb_url":"tay-sung-sat-thu-thumb.jpg","poster_url":"tay-sung-sat-thu-poster.jpg","year":1970},{"modified":{"time":"2023-10-16T20:42:35.000Z"},"_id":"652d3dc9aab68118a3af0bae","name":"The Story of Adele H.","slug":"the-story-of-adele-h","origin_name":"The Story of Adele H.","thumb_url":"the-story-of-adele-h-thumb.jpg","poster_url":"the-story-of-adele-h-poster.jpg","year":1975},{"modified":{"time":"2023-10-16T20:40:16.000Z"},"_id":"652d3d3caab68118a3af09ea","name":"Giải Bóng Chày Nữ","slug":"giai-bong-chay-nu","origin_name":"A League of Their Own","thumb_url":"giai-bong-chay-nu-thumb.jpg","poster_url":"giai-bong-chay-nu-poster.jpg","year":1993},{"modified":{"time":"2023-10-16T19:35:09.000Z"},"_id":"651809fffe8e2316c088b636","name":"Hổ Hạc Yêu Sư Lục","slug":"ho-hac-yeu-su-luc","origin_name":"Tiger and Crane","thumb_url":"ho-hac-yeu-su-luc-thumb.jpg","poster_url":"ho-hac-yeu-su-luc-poster.jpg","year":2023},{"modified":{"time":"2023-10-16T18:18:49.000Z"},"_id":"652d167fe2f0dc639fce6f2e","name":"Con Đường Tuyệt Vọng","slug":"con-duong-tuyet-vong","origin_name":"Desperation Road","thumb_url":"con-duong-tuyet-vong-thumb.jpg","poster_url":"con-duong-tuyet-vong-poster.jpg","year":2023},{"modified":{"time":"2023-10-16T18:12:44.000Z"},"_id":"64feb6861e9ad2fe0c329cba","name":"Tôi Có Một Người Bạn","slug":"toi-co-mot-nguoi-ban","origin_name":"Be with You","thumb_url":"toi-co-mot-nguoi-ban-thumb.jpg","poster_url":"toi-co-mot-nguoi-ban-poster.jpg","year":2023}],"pathImage":"https://img.ophim10.cc/uploads/movies/","pagination":{"totalItems":25261,"totalItemsPerPage":24,"currentPage":111,"totalPages":1053}}