{"status":true,"items":[{"modified":{"time":"2024-01-18T13:16:03.000Z"},"_id":"65a5d8637074f826ccde14e9","name":"Liệt Ái","slug":"liet-ai","origin_name":"Passionate Love","thumb_url":"liet-ai-thumb.jpg","poster_url":"liet-ai-poster.jpg","year":2023},{"modified":{"time":"2024-01-17T22:56:41.000Z"},"_id":"65a7f88b31d8a2b99eb57f51","name":"Đòn bẩy (Phần 2)","slug":"leverage-redemption-phan-2","origin_name":"Leverage: Redemption (Season 2)","thumb_url":"leverage-redemption-phan-2-thumb.jpg","poster_url":"leverage-redemption-phan-2-poster.jpg","year":2022},{"modified":{"time":"2024-01-17T20:49:01.000Z"},"_id":"658c6451efed8b7739e9766c","name":"Án mạng nơi Tận cùng Thế giới","slug":"a-murder-at-the-end-of-the-world","origin_name":"A Murder at the End of the World","thumb_url":"a-murder-at-the-end-of-the-world-thumb.jpg","poster_url":"a-murder-at-the-end-of-the-world-poster.jpg","year":2023},{"modified":{"time":"2024-01-17T17:19:04.000Z"},"_id":"65a78c3a7074f826cce089dc","name":"Kỳ Ngộ Thiên Duyên","slug":"ky-ngo-thien-duyen","origin_name":"TALE OF PHANTOM: A LOVE STORY","thumb_url":"ky-ngo-thien-duyen-thumb.jpg","poster_url":"ky-ngo-thien-duyen-poster.jpg","year":2023},{"modified":{"time":"2024-01-17T15:57:01.000Z"},"_id":"65a7964a31d8a2b99eb4a4f2","name":"Nhật Ký Trao Đổi Bí Mật","slug":"nhat-ky-trao-doi-bi-mat","origin_name":"Our Secret Diary","thumb_url":"nhat-ky-trao-doi-bi-mat-thumb.jpg","poster_url":"nhat-ky-trao-doi-bi-mat-poster.jpg","year":2023},{"modified":{"time":"2024-01-17T14:23:55.000Z"},"_id":"65a780897074f826cce06f6e","name":"Caché","slug":"cache","origin_name":"Caché","thumb_url":"cache-thumb.jpg","poster_url":"cache-poster.jpg","year":2005},{"modified":{"time":"2024-01-17T14:18:52.000Z"},"_id":"65a77f4f7074f826cce06826","name":"The 14 Amazons","slug":"the-14-amazons","origin_name":"The 14 Amazons","thumb_url":"the-14-amazons-thumb.jpg","poster_url":"the-14-amazons-poster.jpg","year":1972},{"modified":{"time":"2024-01-17T14:15:53.000Z"},"_id":"65a77e9f7074f826cce0635a","name":" Song Hiệp ","slug":"song-hiep","origin_name":" Song Hiệp ","thumb_url":"song-hiep-thumb.jpg","poster_url":"song-hiep-poster.jpg","year":1971},{"modified":{"time":"2024-01-17T14:01:46.000Z"},"_id":"6464b2a89b6b2c58a9f5ccda","name":"Biệt Đội Marvel","slug":"biet-doi-marvel","origin_name":"The Marvels","thumb_url":"biet-doi-marvel-thumb.jpg","poster_url":"biet-doi-marvel-poster.jpg","year":2023},{"modified":{"time":"2024-01-17T12:27:53.000Z"},"_id":"655486dd03f63c57cb959274","name":"Hãy Nói Với Anh Rằng Em Yêu Anh","slug":"hay-noi-voi-anh-rang-em-yeu-anh","origin_name":"Tell Me You Love Me","thumb_url":"hay-noi-voi-anh-rang-em-yeu-anh-thumb.jpg","poster_url":"hay-noi-voi-anh-rang-em-yeu-anh-poster.jpg","year":2023},{"modified":{"time":"2024-01-17T11:30:54.000Z"},"_id":"6226010aeb35da19972dc96f","name":"Truyền thuyết về chiếc chảo sắt","origin_name":"Legend of the Iron Pan","thumb_url":"truyen-thuyet-ve-chiec-chao-sat-thumb.jpg","slug":"truyen-thuyet-ve-chiec-chao-sat","year":2018,"poster_url":"truyen-thuyet-ve-chiec-chao-sat-poster.jpg"},{"modified":{"time":"2024-01-17T11:30:42.000Z"},"_id":"622600e5eb35da19972dc93c","name":"Nhân tình thế sự","origin_name":"People Places Things","thumb_url":"nhan-tinh-the-su-thumb.jpg","slug":"nhan-tinh-the-su","year":2015,"poster_url":"nhan-tinh-the-su-poster.jpg"},{"modified":{"time":"2024-01-17T11:30:28.000Z"},"_id":"622600dbeb35da19972dc920","name":"Võ Đương Sơn chi Thiên lữ kỳ duyên","origin_name":"A Fairy Herb&#x27;&#x27;s Love","thumb_url":"vo-duong-son-chi-thien-lu-ky-duyen-thumb.jpg","slug":"vo-duong-son-chi-thien-lu-ky-duyen","year":2018,"poster_url":"vo-duong-son-chi-thien-lu-ky-duyen-poster.jpg"},{"modified":{"time":"2024-01-17T11:30:18.000Z"},"_id":"622600c7eb35da19972dc8fb","name":"Vòng lặp thời gian","origin_name":"Time Loop","thumb_url":"vong-lap-thoi-gian-thumb.jpg","slug":"vong-lap-thoi-gian","year":2018,"poster_url":"vong-lap-thoi-gian-poster.jpg"},{"modified":{"time":"2024-01-17T11:30:07.000Z"},"_id":"622600c7eb35da19972dc8f0","name":"Những gã trai hư","origin_name":"Bad Boys","thumb_url":"nhung-ga-trai-hu-thumb.jpg","slug":"nhung-ga-trai-hu","year":1995,"poster_url":"nhung-ga-trai-hu-poster.jpg"},{"modified":{"time":"2024-01-17T11:29:54.000Z"},"_id":"622600baeb35da19972dc8da","name":"Võ sĩ trẻ","origin_name":"Young Boxer","thumb_url":"vo-si-tre-thumb.jpg","slug":"vo-si-tre","year":2018,"poster_url":"vo-si-tre-poster.jpg"},{"modified":{"time":"2024-01-17T11:29:41.000Z"},"_id":"622600aceb35da19972dc8c7","name":"Đạo diện chọn vai lên vị ký","origin_name":"Becoming the Director","thumb_url":"dao-dien-chon-vai-len-vi-ky-thumb.jpg","slug":"dao-dien-chon-vai-len-vi-ky","year":2018,"poster_url":"dao-dien-chon-vai-len-vi-ky-poster.jpg"},{"modified":{"time":"2024-01-17T11:29:20.000Z"},"_id":"622600abeb35da19972dc8bb","name":"Vụ án cướp giữa đêm","origin_name":"Midnight Heist","thumb_url":"vu-an-cuop-giua-dem-thumb.jpg","slug":"vu-an-cuop-giua-dem","year":2018,"poster_url":"vu-an-cuop-giua-dem-poster.jpg"},{"modified":{"time":"2024-01-17T11:29:10.000Z"},"_id":"622600a6eb35da19972dc8ae","name":"Cuộc đột kích vĩ đại","origin_name":"The Great Raid","thumb_url":"cuoc-dot-kich-vi-dai-thumb.jpg","slug":"cuoc-dot-kich-vi-dai","year":2005,"poster_url":"cuoc-dot-kich-vi-dai-poster.jpg"},{"modified":{"time":"2024-01-17T11:28:52.000Z"},"_id":"6226009deb35da19972dc89c","name":"Vua xã hội","origin_name":"the King of Society","thumb_url":"vua-xa-hoi-thumb.jpg","slug":"vua-xa-hoi","year":2018,"poster_url":"vua-xa-hoi-poster.jpg"},{"modified":{"time":"2024-01-17T11:28:34.000Z"},"_id":"6226008feb35da19972dc884","name":"Vượt qua bế tắc","origin_name":"Going Through the Desperation","thumb_url":"vuot-qua-be-tac-thumb.jpg","slug":"vuot-qua-be-tac","year":2017,"poster_url":"vuot-qua-be-tac-poster.jpg"},{"modified":{"time":"2024-01-17T11:28:23.000Z"},"_id":"62260087eb35da19972dc869","name":"Anh phải ở bên em","origin_name":"You Get Me","thumb_url":"anh-phai-o-ben-em-thumb.jpg","slug":"anh-phai-o-ben-em","year":2017,"poster_url":"anh-phai-o-ben-em-poster.jpg"},{"modified":{"time":"2024-01-17T11:28:08.000Z"},"_id":"62260081eb35da19972dc84f","name":"Xã nhỏ vùng núi","origin_name":"Rurd Credit Union in Mountain Areas","thumb_url":"xa-nho-vung-nui-thumb.jpg","slug":"xa-nho-vung-nui","year":2017,"poster_url":"xa-nho-vung-nui-poster.jpg"},{"modified":{"time":"2024-01-17T11:27:51.000Z"},"_id":"62260081eb35da19972dc84d","name":"Đào tiên sinh","origin_name":"Mr. Tao","thumb_url":"dao-tien-sinh-thumb.jpg","slug":"dao-tien-sinh","year":2018,"poster_url":"dao-tien-sinh-poster.jpg"}],"pathImage":"https://img.ophim11.cc/uploads/movies/","pagination":{"totalItems":25309,"totalItemsPerPage":24,"currentPage":12,"totalPages":1055}}