{"status":true,"items":[{"modified":{"time":"2024-01-20T10:26:08.000Z"},"_id":"6225fe67eb35da19972dc539","name":"Biển cả và thiên thần","origin_name":"Sea And Angel","thumb_url":"bien-ca-va-thien-than-thumb.jpg","slug":"bien-ca-va-thien-than","year":2017,"poster_url":"bien-ca-va-thien-than-poster.jpg"},{"modified":{"time":"2024-01-20T10:25:57.000Z"},"_id":"6225fe5deb35da19972dc51c","name":"Đội đặc công nhanh nhẹn","origin_name":"Shining Force","thumb_url":"doi-dac-cong-nhanh-nhen-thumb.jpg","slug":"doi-dac-cong-nhanh-nhen","year":2018,"poster_url":"doi-dac-cong-nhanh-nhen-poster.jpg"},{"modified":{"time":"2024-01-20T10:25:44.000Z"},"_id":"6225fe59eb35da19972dc505","name":"Bí mật của cô gái","origin_name":"Girl&#x27;&#x27;s Secret","thumb_url":"bi-mat-cua-co-gai-thumb.jpg","slug":"bi-mat-cua-co-gai","year":2018,"poster_url":"bi-mat-cua-co-gai-poster.jpg"},{"modified":{"time":"2024-01-20T10:25:31.000Z"},"_id":"6225fe4beb35da19972dc4ee","name":"Bí mật của gương cá đôi","origin_name":"Secret of Double-fish Mirror","thumb_url":"bi-mat-cua-guong-ca-doi-thumb.jpg","slug":"bi-mat-cua-guong-ca-doi","year":2018,"poster_url":"bi-mat-cua-guong-ca-doi-poster.jpg"},{"modified":{"time":"2024-01-20T10:24:47.000Z"},"_id":"6225fe3eeb35da19972dc4d3","name":"Đội đặc nhiệm lính đánh thuê","origin_name":"Mercenary Power Rangers","thumb_url":"doi-dac-nhiem-linh-danh-thue-thumb.jpg","slug":"doi-dac-nhiem-linh-danh-thue","year":2018,"poster_url":"doi-dac-nhiem-linh-danh-thue-poster.jpg"},{"modified":{"time":"2024-01-20T10:24:33.000Z"},"_id":"6225fe3ceb35da19972dc4c2","name":"Bí mật của khảm","origin_name":"Ma Saike&#x27;&#x27;s Secret","thumb_url":"bi-mat-cua-kham-thumb.jpg","slug":"bi-mat-cua-kham","year":2018,"poster_url":"bi-mat-cua-kham-poster.jpg"},{"modified":{"time":"2024-01-20T10:24:18.000Z"},"_id":"6225fe2eeb35da19972dc49f","name":"Bí mật tình yêu: Nhẫn thần đổi thể","origin_name":"The Magic Ring","thumb_url":"bi-mat-tinh-yeu-nhan-than-doi-the-thumb.jpg","slug":"bi-mat-tinh-yeu-nhan-than-doi-the","year":2018,"poster_url":"bi-mat-tinh-yeu-nhan-than-doi-the-poster.jpg"},{"modified":{"time":"2024-01-20T10:24:05.000Z"},"_id":"6225fe1aeb35da19972dc488","name":"Đường sắt và nhóm thứ mười một","origin_name":"Railway and the Eleventh Group","thumb_url":"duong-sat-va-nhom-thu-muoi-mot-thumb.jpg","slug":"duong-sat-va-nhom-thu-muoi-mot","year":2018,"poster_url":"duong-sat-va-nhom-thu-muoi-mot-poster.jpg"},{"modified":{"time":"2024-01-20T10:23:43.000Z"},"_id":"6225fe11eb35da19972dc473","name":"Bộ lạc sắc đẹp","origin_name":"Beauty Tribe","thumb_url":"bo-lac-sac-dep-thumb.jpg","slug":"bo-lac-sac-dep","year":2018,"poster_url":"bo-lac-sac-dep-poster.jpg"},{"modified":{"time":"2024-01-20T10:23:31.000Z"},"_id":"6225fdf2eb35da19972dc45d","name":"Em là Hồn đấu la của tôi","origin_name":"You are My Contra","thumb_url":"em-la-hon-dau-la-cua-toi-thumb.jpg","slug":"em-la-hon-dau-la-cua-toi","year":2018,"poster_url":"em-la-hon-dau-la-cua-toi-poster.jpg"},{"modified":{"time":"2024-01-20T10:22:54.000Z"},"_id":"6225fdaceb35da19972dc408","name":"Hàng xóm của tôi là mỹ nữ","origin_name":"My Neighbor is A Beauty","thumb_url":"hang-xom-cua-toi-la-my-nu-thumb.jpg","slug":"hang-xom-cua-toi-la-my-nu","year":2018,"poster_url":"hang-xom-cua-toi-la-my-nu-poster.jpg"},{"modified":{"time":"2024-01-20T10:22:42.000Z"},"_id":"6225fd89eb35da19972dc3d7","name":"Hãy gọi tôi Cứu Thế Chủ","origin_name":"Call Me Savior","thumb_url":"hay-goi-toi-cuu-the-chu-thumb.jpg","slug":"hay-goi-toi-cuu-the-chu","year":2017,"poster_url":"hay-goi-toi-cuu-the-chu-poster.jpg"},{"modified":{"time":"2024-01-20T10:22:28.000Z"},"_id":"6225fd69eb35da19972dc3bd","name":"Hiệp thám phi phàm chi Thâm cung muội ảnh","origin_name":"Phantom of the Palace Museum","thumb_url":"hiep-tham-phi-pham-chi-tham-cung-muoi-anh-thumb.jpg","slug":"hiep-tham-phi-pham-chi-tham-cung-muoi-anh","year":2018,"poster_url":"hiep-tham-phi-pham-chi-tham-cung-muoi-anh-poster.jpg"},{"modified":{"time":"2024-01-20T10:22:15.000Z"},"_id":"6225fd65eb35da19972dc3ab","name":"Marley và tôi","origin_name":"Marley & Me","thumb_url":"marley-va-toi-thumb.jpg","slug":"marley-va-toi","year":2008,"poster_url":"marley-va-toi-poster.jpg"},{"modified":{"time":"2024-01-20T10:22:01.000Z"},"_id":"6225fd28eb35da19972dc379","name":"Kawaguchi Haruna của Wang Dazhuang","origin_name":"Wang Dazhuang&#x27;&#x27;s Kawaguchi Haruna","thumb_url":"kawaguchi-haruna-cua-wang-dazhuang-thumb.jpg","slug":"kawaguchi-haruna-cua-wang-dazhuang","year":2018,"poster_url":"kawaguchi-haruna-cua-wang-dazhuang-poster.jpg"},{"modified":{"time":"2024-01-19T23:40:34.000Z"},"_id":"65aa9c907074f826cce543b8","name":"America the Beautiful","slug":"america-the-beautiful","origin_name":"America the Beautiful","thumb_url":"america-the-beautiful-thumb.jpg","poster_url":"america-the-beautiful-poster.jpg","year":2022},{"modified":{"time":"2024-01-19T23:02:27.000Z"},"_id":"65aa9d107074f826cce547bf","name":"Africa's Claws and Jaws","slug":"africas-claws-and-jaws","origin_name":"Africa's Claws and Jaws","thumb_url":"africas-claws-and-jaws-thumb.jpg","poster_url":"africas-claws-and-jaws-poster.jpg","year":2017},{"modified":{"time":"2024-01-19T22:57:49.000Z"},"_id":"65aa9bfb7074f826cce54016","name":"Inside Taiwan: Standing Up to China","slug":"inside-taiwan-standing-up-to-china","origin_name":"Inside Taiwan: Standing Up to China","thumb_url":"inside-taiwan-standing-up-to-china-thumb.jpg","poster_url":"inside-taiwan-standing-up-to-china-poster.jpg","year":2023},{"modified":{"time":"2024-01-19T22:55:21.000Z"},"_id":"65aa9b6631d8a2b99eb93b7f","name":"Nadiya's Time to Eat","slug":"nadiyas-time-to-eat","origin_name":"Nadiya's Time to Eat","thumb_url":"nadiyas-time-to-eat-thumb.jpg","poster_url":"nadiyas-time-to-eat-poster.jpg","year":2019},{"modified":{"time":"2024-01-19T14:25:05.000Z"},"_id":"656c410a03f63c57cbc1e6e3","name":"Reacher (Phần 2)","slug":"reacher-phan-2","origin_name":"Reacher Season 2","thumb_url":"reacher-phan-2-thumb.jpg","poster_url":"reacher-phan-2-poster.jpg","year":2023},{"modified":{"time":"2024-01-19T08:27:12.000Z"},"_id":"62260028eb35da19972dc798","name":"Đầu sắt bất khả chiến bại","origin_name":"Invincible Iron-head","thumb_url":"dau-sat-bat-kha-chien-bai-thumb.jpg","slug":"dau-sat-bat-kha-chien-bai","year":2018,"poster_url":"dau-sat-bat-kha-chien-bai-poster.jpg"},{"modified":{"time":"2024-01-19T08:26:58.000Z"},"_id":"6226001deb35da19972dc783","name":"Câu chuyện lúc nửa đêm","origin_name":"Goosebumps","thumb_url":"cau-chuyen-luc-nua-dem-thumb.jpg","slug":"cau-chuyen-luc-nua-dem","year":2015,"poster_url":"cau-chuyen-luc-nua-dem-poster.jpg"},{"modified":{"time":"2024-01-19T08:26:43.000Z"},"_id":"6225ffe1eb35da19972dc762","name":"Để Mai tính 2","origin_name":"Let Hoi Decide","thumb_url":"de-mai-tinh-2-thumb.jpg","slug":"de-mai-tinh-2","year":2014,"poster_url":"de-mai-tinh-2-poster.jpg"},{"modified":{"time":"2024-01-19T08:26:26.000Z"},"_id":"6225ffb8eb35da19972dc751","name":"Để trở thành người đứng đầu của một giáo phái","origin_name":"To Be Chief of A Sect","thumb_url":"de-tro-thanh-nguoi-dung-dau-cua-mot-giao-phai-thumb.jpg","slug":"de-tro-thanh-nguoi-dung-dau-cua-mot-giao-phai","year":2018,"poster_url":"de-tro-thanh-nguoi-dung-dau-cua-mot-giao-phai-poster.jpg"}],"pathImage":"https://img.ophim11.cc/uploads/movies/","pagination":{"totalItems":25309,"totalItemsPerPage":24,"currentPage":10,"totalPages":1055}}