{"status":true,"items":[{"modified":{"time":"2024-01-22T12:57:47.000Z"},"_id":"6224e95eeb35da19972d8b2f","name":"Săn cáo","origin_name":"Fox Hunt","thumb_url":"san-cao-thumb.jpg","slug":"san-cao","year":2018,"poster_url":"san-cao-poster.jpg"},{"modified":{"time":"2024-01-22T12:57:09.000Z"},"_id":"6224e93feb35da19972d8ae3","name":"Sát thủ ghế sau","origin_name":"Life Hanging in the Ballance","thumb_url":"sat-thu-ghe-sau-thumb.jpg","slug":"sat-thu-ghe-sau","year":2017,"poster_url":"sat-thu-ghe-sau-poster.jpg"},{"modified":{"time":"2024-01-22T12:56:53.000Z"},"_id":"6224e912eb35da19972d8a76","name":"Say tuổi thành xuân :băng đảng :người đàn ông","origin_name":"My Youth: Men Story","thumb_url":"say-tuoi-thanh-xuan-bang-dang-nguoi-dan-ong-thumb.jpg","slug":"say-tuoi-thanh-xuan-bang-dang-nguoi-dan-ong","year":2016,"poster_url":"say-tuoi-thanh-xuan-bang-dang-nguoi-dan-ong-poster.jpg"},{"modified":{"time":"2024-01-22T12:56:38.000Z"},"_id":"6224e8f3eb35da19972d8a1b","name":"Siêu binh vương chi chiến lang quy lai","origin_name":"The Return of War Wolves","thumb_url":"sieu-binh-vuong-chi-chien-lang-quy-lai-thumb.jpg","slug":"sieu-binh-vuong-chi-chien-lang-quy-lai","year":2017,"poster_url":"sieu-binh-vuong-chi-chien-lang-quy-lai-poster.jpg"},{"modified":{"time":"2024-01-22T12:56:23.000Z"},"_id":"6224e8d6eb35da19972d89d3","name":"Siêu hiệp sĩ","origin_name":"Superhero","thumb_url":"sieu-hiep-si-thumb.jpg","slug":"sieu-hiep-si","year":2017,"poster_url":"sieu-hiep-si-poster.jpg"},{"modified":{"time":"2024-01-22T12:55:56.000Z"},"_id":"6224e8bdeb35da19972d898a","name":"Song sanh linh thám","origin_name":"Twin Detective","thumb_url":"song-sanh-linh-tham-thumb.jpg","slug":"song-sanh-linh-tham","year":2017,"poster_url":"song-sanh-linh-tham-poster.jpg"},{"modified":{"time":"2024-01-22T12:55:40.000Z"},"_id":"6224e8a3eb35da19972d8940","name":"Tái sinh","origin_name":"Reborn","thumb_url":"tai-sinh-thumb.jpg","slug":"tai-sinh","year":2018,"poster_url":"tai-sinh-poster.jpg"},{"modified":{"time":"2024-01-22T12:55:28.000Z"},"_id":"6224e848eb35da19972d8901","name":"Tầm xuân nở","origin_name":"Mother-in-law in Town","thumb_url":"tam-xuan-no-thumb.jpg","slug":"tam-xuan-no","year":2017,"poster_url":"tam-xuan-no-poster.jpg"},{"modified":{"time":"2024-01-22T12:55:08.000Z"},"_id":"6224e817eb35da19972d88d3","name":"Tần tặc hữu đạo","origin_name":"Righteous Thieves","thumb_url":"tan-tac-huu-dao-thumb.jpg","slug":"tan-tac-huu-dao","year":2017,"poster_url":"tan-tac-huu-dao-poster.jpg"},{"modified":{"time":"2024-01-22T00:46:35.000Z"},"_id":"62a1a4ae7a956fb5db030134","name":"Thần Ấn Vương Toạ","origin_name":"Throne of Seal","thumb_url":"than-an-vuong-toa-thumb.jpg","poster_url":"than-an-vuong-toa-poster.jpg","slug":"than-an-vuong-toa","year":2022},{"modified":{"time":"2024-01-22T00:24:03.000Z"},"_id":"65ad51a531d8a2b99ebd05ba","name":"60 Minuten","slug":"60-minuten","origin_name":"Sixty Minutes","thumb_url":"60-minuten-thumb.jpg","poster_url":"60-minuten-poster.jpg","year":2024},{"modified":{"time":"2024-01-22T00:10:29.000Z"},"_id":"6569e528aa7d07ce5caff0e6","name":"Thập Phương Võ Thánh","slug":"thap-phuong-vo-thanh","origin_name":"The Invincible","thumb_url":"thap-phuong-vo-thanh-thumb.jpg","poster_url":"thap-phuong-vo-thanh-poster.jpg","year":2023},{"modified":{"time":"2024-01-22T00:00:55.000Z"},"_id":"65ad4dc331d8a2b99ebcf527","name":"Monsters 103 Mercies Dragon Damnation","slug":"monsters-103-mercies-dragon-damnation","origin_name":"Monsters 103 Mercies Dragon Damnation","thumb_url":"monsters-103-mercies-dragon-damnation-thumb.jpg","poster_url":"monsters-103-mercies-dragon-damnation-poster.jpg","year":2024},{"modified":{"time":"2024-01-21T23:20:04.000Z"},"_id":"65688fe9aa7d07ce5cad1633","name":"Chào Mừng Đến Samdal-ri ","slug":"chao-mung-den-samdal-ri","origin_name":"Welcome to Samdal-ri","thumb_url":"chao-mung-den-samdal-ri-thumb.jpg","poster_url":"chao-mung-den-samdal-ri-poster.jpg","year":2023},{"modified":{"time":"2024-01-21T11:06:27.000Z"},"_id":"658ea0c97074f826cca04fc5","name":"Vượt Đại Dương Để Yêu Em","slug":"vuot-dai-duong-de-yeu-em","origin_name":"You'll Never Walk Alone","thumb_url":"vuot-dai-duong-de-yeu-em-thumb.jpg","poster_url":"vuot-dai-duong-de-yeu-em-poster.jpg","year":2023},{"modified":{"time":"2024-01-20T22:14:41.000Z"},"_id":"65548780aa7d07ce5c879e77","name":"Người Yêu Của Tôi Là Thần Tình Yêu","slug":"nguoi-yeu-cua-toi-la-than-tinh-yeu","origin_name":"My Man Is Cupid","thumb_url":"nguoi-yeu-cua-toi-la-than-tinh-yeu-thumb.jpg","poster_url":"nguoi-yeu-cua-toi-la-than-tinh-yeu-poster.jpg","year":2023},{"modified":{"time":"2024-01-20T22:12:38.000Z"},"_id":"6560ba40aa7d07ce5c9e582f","name":"Chàng Quỷ Của Tôi","slug":"chang-quy-cua-toi","origin_name":"My Demon","thumb_url":"chang-quy-cua-toi-thumb.jpg","poster_url":"chang-quy-cua-toi-poster.jpg","year":2023},{"modified":{"time":"2024-01-20T22:01:13.000Z"},"_id":"657d2409efed8b7739aafc4b","name":"Wonka","slug":"wonka","origin_name":"Wonka","thumb_url":"wonka-thumb.jpg","poster_url":"wonka-poster.jpg","year":2023},{"modified":{"time":"2024-01-20T12:32:01.000Z"},"_id":"659cca5431d8a2b99e95f349","name":"Hướng Về Em","slug":"huong-ve-em","origin_name":"All of Her","thumb_url":"huong-ve-em-thumb.jpg","poster_url":"huong-ve-em-poster.jpg","year":2024},{"modified":{"time":"2024-01-20T11:59:30.000Z"},"_id":"65a759dc31d8a2b99eb41bed","name":"Vương Giả Vinh Diệu - Vinh Diệu Chi Chương: Thành Toái Nguyệt","slug":"vuong-gia-vinh-dieu-vinh-dieu-chi-chuong-thanh-toai-nguyet","origin_name":"Honor of Kings: Chapter of Glory","thumb_url":"vuong-gia-vinh-dieu-vinh-dieu-chi-chuong-thanh-toai-nguyet-thumb.jpg","poster_url":"vuong-gia-vinh-dieu-vinh-dieu-chi-chuong-thanh-toai-nguyet-poster.jpg","year":2024},{"modified":{"time":"2024-01-20T11:49:14.000Z"},"_id":"65ab4ea87074f826cce5eaac","name":"Di Sản Kỳ Bí","slug":"di-san-ky-bi","origin_name":"The Bequeathed","thumb_url":"di-san-ky-bi-thumb.jpg","poster_url":"di-san-ky-bi-poster.jpg","year":2024},{"modified":{"time":"2024-01-20T10:26:51.000Z"},"_id":"6225fe9aeb35da19972dc59c","name":"Bảo tàng các mối quan hệ tan vỡ","origin_name":"Museum of Broken Relationships","thumb_url":"bao-tang-cac-moi-quan-he-tan-vo-thumb.jpg","slug":"bao-tang-cac-moi-quan-he-tan-vo","year":2018,"poster_url":"bao-tang-cac-moi-quan-he-tan-vo-poster.jpg"},{"modified":{"time":"2024-01-20T10:26:34.000Z"},"_id":"6225fe7feb35da19972dc55d","name":"Đội đặc công đại nội","origin_name":"The Secret Service","thumb_url":"doi-dac-cong-dai-noi-thumb.jpg","slug":"doi-dac-cong-dai-noi","year":2017,"poster_url":"doi-dac-cong-dai-noi-poster.jpg"},{"modified":{"time":"2024-01-20T10:26:19.000Z"},"_id":"6225fe7ceb35da19972dc551","name":"Berserk","origin_name":"Berserk","thumb_url":"berserk-thumb.jpg","slug":"berserk","year":2018,"poster_url":"berserk-poster.jpg"}],"pathImage":"https://img.ophim11.cc/uploads/movies/","pagination":{"totalItems":25309,"totalItemsPerPage":24,"currentPage":9,"totalPages":1055}}