{"status":true,"items":[{"modified":{"time":"2024-01-14T20:42:57.000Z"},"_id":"6572aca9efed8b77398a6902","name":"Thương Nguyên Đồ","slug":"thuong-nguyen-do","origin_name":"The Demon Hunter ","thumb_url":"thuong-nguyen-do-thumb.jpg","poster_url":"thuong-nguyen-do-poster.jpg","year":2023},{"modified":{"time":"2024-01-14T20:38:30.000Z"},"_id":"65a3e3d47074f826ccd16453","name":"Jaguarland","slug":"jaguarland","origin_name":"Jaguarland","thumb_url":"jaguarland-thumb.jpg","poster_url":"jaguarland-poster.jpg","year":2020},{"modified":{"time":"2024-01-14T12:59:22.000Z"},"_id":"622602dceb35da19972dccbf","name":"Dương quang phổ chiếu","origin_name":"A Sun","thumb_url":"duong-quang-pho-chieu-thumb.jpg","slug":"duong-quang-pho-chieu","year":2019,"poster_url":"duong-quang-pho-chieu-poster.jpg"},{"modified":{"time":"2024-01-14T12:59:02.000Z"},"_id":"622602bfeb35da19972dcc96","name":"Megamind","origin_name":"Megamind","thumb_url":"megamind-thumb.jpg","slug":"megamind","year":2010,"poster_url":"megamind-poster.jpg"},{"modified":{"time":"2024-01-14T12:58:47.000Z"},"_id":"622602b0eb35da19972dcc76","name":"Đại Đường Hồ Yêu Truyện","origin_name":"The Legend of the Fox Spirit","thumb_url":"dai-duong-ho-yeu-truyen-thumb.jpg","slug":"dai-duong-ho-yeu-truyen","year":2018,"poster_url":"dai-duong-ho-yeu-truyen-poster.jpg"},{"modified":{"time":"2024-01-14T12:58:35.000Z"},"_id":"622602aeeb35da19972dcc6a","name":"Ván cờ chiến tranh lạnh","origin_name":"The Coldest Game","thumb_url":"van-co-chien-tranh-lanh-thumb.jpg","slug":"van-co-chien-tranh-lanh","year":2019,"poster_url":"van-co-chien-tranh-lanh-poster.jpg"},{"modified":{"time":"2024-01-14T12:58:23.000Z"},"_id":"622602a2eb35da19972dcc5d","name":"Sứ mệnh Thần Chết","origin_name":"Bleach","thumb_url":"su-menh-than-chet-thumb.jpg","slug":"su-menh-than-chet","year":2018,"poster_url":"su-menh-than-chet-poster.jpg"},{"modified":{"time":"2024-01-14T12:58:10.000Z"},"_id":"62260287eb35da19972dcc48","name":"Thảm họa Los Angeles","origin_name":"Battle: Los Angeles","thumb_url":"tham-hoa-los-angeles-thumb.jpg","slug":"tham-hoa-los-angeles","year":2011,"poster_url":"tham-hoa-los-angeles-poster.jpg"},{"modified":{"time":"2024-01-14T12:57:55.000Z"},"_id":"6226027eeb35da19972dcc30","name":"Thiên mệnh anh hùng","origin_name":"Sword of the Assassin","thumb_url":"thien-menh-anh-hung-thumb.jpg","slug":"thien-menh-anh-hung","year":2012,"poster_url":"thien-menh-anh-hung-poster.jpg"},{"modified":{"time":"2024-01-14T12:57:42.000Z"},"_id":"62260276eb35da19972dcc22","name":"Đại ma vương thời không","origin_name":"The Master of the Time and Space","thumb_url":"dai-ma-vuong-thoi-khong-thumb.jpg","slug":"dai-ma-vuong-thoi-khong","year":2018,"poster_url":"dai-ma-vuong-thoi-khong-poster.jpg"},{"modified":{"time":"2024-01-14T12:57:31.000Z"},"_id":"6226026aeb35da19972dcc14","name":"Ngọn hải đăng","origin_name":"The Lighthouse","thumb_url":"ngon-hai-dang-thumb.jpg","slug":"ngon-hai-dang","year":2019,"poster_url":"ngon-hai-dang-poster.jpg"},{"modified":{"time":"2024-01-14T12:57:19.000Z"},"_id":"6226024deb35da19972dcbef","name":"Đại sư mưu mô","origin_name":"Trick Artist","thumb_url":"dai-su-muu-mo-thumb.jpg","slug":"dai-su-muu-mo","year":2017,"poster_url":"dai-su-muu-mo-poster.jpg"},{"modified":{"time":"2024-01-14T12:57:03.000Z"},"_id":"62260241eb35da19972dcbbc","name":"Mắt đại bàng","origin_name":"Eagle Eye","thumb_url":"mat-dai-bang-thumb.jpg","slug":"mat-dai-bang","year":2008,"poster_url":"mat-dai-bang-poster.jpg"},{"modified":{"time":"2024-01-14T12:56:45.000Z"},"_id":"62260234eb35da19972dcba6","name":"Nhiều năm về sau","origin_name":"Many Years Later","thumb_url":"nhieu-nam-ve-sau-thumb.jpg","slug":"nhieu-nam-ve-sau","year":2017,"poster_url":"nhieu-nam-ve-sau-poster.jpg"},{"modified":{"time":"2024-01-14T12:56:28.000Z"},"_id":"6226022beb35da19972dcb7f","name":"Hiểm họa hiện hữu","origin_name":"Clear and Present Danger","thumb_url":"hiem-hoa-hien-huu-thumb.jpg","slug":"hiem-hoa-hien-huu","year":1994,"poster_url":"hiem-hoa-hien-huu-poster.jpg"},{"modified":{"time":"2024-01-14T12:56:13.000Z"},"_id":"62260224eb35da19972dcb73","name":"Nữ chiến binh ế","origin_name":"Leftover Women","thumb_url":"nu-chien-binh-e-thumb.jpg","slug":"nu-chien-binh-e","year":2017,"poster_url":"nu-chien-binh-e-poster.jpg"},{"modified":{"time":"2024-01-14T12:55:58.000Z"},"_id":"62260222eb35da19972dcb67","name":"Đại sư thần trộm","origin_name":"The Master of Stealing","thumb_url":"dai-su-than-trom-thumb.jpg","slug":"dai-su-than-trom","year":2017,"poster_url":"dai-su-than-trom-poster.jpg"},{"modified":{"time":"2024-01-14T12:55:38.000Z"},"_id":"62260217eb35da19972dcb50","name":"Phong ba miệng Lục gia: Đêm không ngủ","origin_name":"War in Lujiazui: Sleepless Night","thumb_url":"phong-ba-mieng-luc-gia-dem-khong-ngu-thumb.jpg","slug":"phong-ba-mieng-luc-gia-dem-khong-ngu","year":2017,"poster_url":"phong-ba-mieng-luc-gia-dem-khong-ngu-poster.jpg"},{"modified":{"time":"2024-01-14T12:55:24.000Z"},"_id":"62260207eb35da19972dcb3a","name":"quyết chiến trận Ô long","origin_name":"Fight the Way out","thumb_url":"quyet-chien-tran-o-long-thumb.jpg","slug":"quyet-chien-tran-o-long","year":2017,"poster_url":"quyet-chien-tran-o-long-poster.jpg"},{"modified":{"time":"2024-01-14T12:55:09.000Z"},"_id":"622601f8eb35da19972dcb26","name":"Số phận của Ne Zha","origin_name":"Ne Zha's Destiny","thumb_url":"so-phan-cua-ne-zha-thumb.jpg","slug":"so-phan-cua-ne-zha","year":2018,"poster_url":"so-phan-cua-ne-zha-poster.jpg"},{"modified":{"time":"2024-01-14T12:54:27.000Z"},"_id":"622601dfeb35da19972dcb15","name":"Thế giới vui vẻ","origin_name":"the Gamble World of Fun","thumb_url":"the-gioi-vui-ve-thumb.jpg","slug":"the-gioi-vui-ve","year":2018,"poster_url":"the-gioi-vui-ve-poster.jpg"},{"modified":{"time":"2024-01-14T00:26:42.000Z"},"_id":"651929a2fe8e2316c0895d16","name":"Ragna Crimson","slug":"ragna-crimson","origin_name":"ラグナクリムゾン","thumb_url":"ragna-crimson-thumb.jpg","poster_url":"ragna-crimson-poster.jpg","year":2023},{"modified":{"time":"2024-01-13T22:49:33.000Z"},"_id":"65a2b10d7074f826cccfbba4","name":"Nhập Vai","slug":"nhap-vai","origin_name":"Role Play","thumb_url":"nhap-vai-thumb.jpg","poster_url":"nhap-vai-poster.jpg","year":2024},{"modified":{"time":"2024-01-13T21:19:19.000Z"},"_id":"658fc2ee7074f826cca66891","name":"Mạch Thượng Nhân Như Ngọc","slug":"mach-thuong-nhan-nhu-ngoc","origin_name":"Special Lady","thumb_url":"mach-thuong-nhan-nhu-ngoc-thumb.jpg","poster_url":"mach-thuong-nhan-nhu-ngoc-poster.jpg","year":2023}],"pathImage":"https://img.ophim11.cc/uploads/movies/","pagination":{"totalItems":25309,"totalItemsPerPage":24,"currentPage":15,"totalPages":1055}}