{"status":true,"items":[{"modified":{"time":"2024-02-27T04:16:22.000Z"},"_id":"65d0c700ff05f1a47d1ab142","name":"Halo (Phần 2)","slug":"halo-phan-2","origin_name":"Halo Season 2","thumb_url":"halo-phan-2-thumb.jpg","poster_url":"halo-phan-2-poster.jpg","year":2024},{"modified":{"time":"2024-02-27T00:56:22.000Z"},"_id":"65dcc798e5f40e2ffe66b250","name":"Hôn Lễ Bất Khả Thi","slug":"hon-le-bat-kha-thi","origin_name":"Wedding Impossible","thumb_url":"hon-le-bat-kha-thi-thumb.jpg","poster_url":"hon-le-bat-kha-thi-poster.jpg","year":2024},{"modified":{"time":"2024-02-27T00:04:35.000Z"},"_id":"65dcc375e5f40e2ffe669f50","name":"Đôi Mắt Si Tình","slug":"doi-mat-si-tinh","origin_name":"Eye Love You","thumb_url":"doi-mat-si-tinh-thumb.jpg","poster_url":"doi-mat-si-tinh-poster.jpg","year":2024},{"modified":{"time":"2024-02-26T23:13:42.000Z"},"_id":"65d62ab25540d59e3ffd4b37","name":"Liệp Băng","slug":"liep-bang","origin_name":"The Hunter","thumb_url":"liep-bang-thumb.jpg","poster_url":"liep-bang-poster.jpg","year":2024},{"modified":{"time":"2024-02-26T23:13:00.000Z"},"_id":"65d45c745540d59e3ffa8f82","name":"Nụ Hôn Ở Seongsu","slug":"nu-hon-o-seongsu","origin_name":"Branding in Seongsu","thumb_url":"nu-hon-o-seongsu-thumb.jpg","poster_url":"nu-hon-o-seongsu-poster.jpg","year":2024},{"modified":{"time":"2024-02-26T23:05:07.000Z"},"_id":"65cb7dc35540d59e3fef693c","name":"Pháo Hoa Nhân Gian","slug":"phao-hoa-nhan-gia","origin_name":"Islands","thumb_url":"phao-hoa-nhan-gia-thumb.jpg","poster_url":"phao-hoa-nhan-gia-poster.jpg","year":2024},{"modified":{"time":"2024-02-26T22:42:26.000Z"},"_id":"65c86e68ff05f1a47d107556","name":"Tuyệt Sắc Tiểu Thần Y","slug":"tuyet-sac-tieu-than-y","origin_name":"Ms. Fantastic Miracle Doctor","thumb_url":"tuyet-sac-tieu-than-y-thumb.jpg","poster_url":"tuyet-sac-tieu-than-y-poster.jpg","year":2023},{"modified":{"time":"2024-02-26T22:31:03.000Z"},"_id":"65dcaaf4e5f40e2ffe665181","name":"Trao Nàng Bàn Tay","slug":"trao-nang-ban-tay","origin_name":"A Tale of Love and Loyalty","thumb_url":"trao-nang-ban-tay-thumb.jpg","poster_url":"trao-nang-ban-tay-poster.jpg","year":2024},{"modified":{"time":"2024-02-26T22:24:18.000Z"},"_id":"65ba528cff05f1a47dff47c4","name":"A Mạch Tòng Quân","slug":"a-mach-tong-quan","origin_name":"Fighting for Love","thumb_url":"a-mach-tong-quan-thumb.jpg","poster_url":"a-mach-tong-quan-poster.jpg","year":2024},{"modified":{"time":"2024-02-26T22:13:13.000Z"},"_id":"65dca927f5295c8cd1f94279","name":"Anh Từng Đến Tương Lai Của Em","slug":"anh-tung-den-tuong-lai-cua-em","origin_name":"I've Been to Your Future","thumb_url":"anh-tung-den-tuong-lai-cua-em-thumb.jpg","poster_url":"anh-tung-den-tuong-lai-cua-em-poster.jpg","year":2023},{"modified":{"time":"2024-02-26T22:09:05.000Z"},"_id":"65ad3bdc31d8a2b99ebcbd95","name":"Sejak: Mê Hoặc Quân Vương","slug":"sejak-me-hoac-quan-vuong","origin_name":"Captivating the King","thumb_url":"sejak-me-hoac-quan-vuong-thumb.jpg","poster_url":"sejak-me-hoac-quan-vuong-poster.jpg","year":2024},{"modified":{"time":"2024-02-26T22:02:50.000Z"},"_id":"65d82a2fe5f40e2ffe5eb047","name":"Tình Yêu Trong Bàn Tay","slug":"tinh-yeu-trong-ban-tay","origin_name":"Palms on Love","thumb_url":"tinh-yeu-trong-ban-tay-thumb.jpg","poster_url":"tinh-yeu-trong-ban-tay-poster.jpg","year":2024},{"modified":{"time":"2024-02-26T22:01:11.000Z"},"_id":"65d58bc15540d59e3ffc44bd","name":"Mộ Sắc Tâm Tích","slug":"mo-sac-tam-tich","origin_name":"Dusk Love","thumb_url":"mo-sac-tam-tich-thumb.jpg","poster_url":"mo-sac-tam-tich-poster.jpg","year":2024},{"modified":{"time":"2024-02-26T18:22:32.000Z"},"_id":"655af363aa7d07ce5c940435","name":"Cô Dâu Istanbul","slug":"co-dau-instabul","origin_name":"Istanbullu Gelin","thumb_url":"co-dau-instabul-thumb.jpg","poster_url":"co-dau-instabul-poster.jpg","year":2017},{"modified":{"time":"2024-02-26T18:22:16.000Z"},"_id":"634b3ed72805d71a492fe52a","name":"Chim Bói Cá","origin_name":"Yali Çapkini","thumb_url":"chim-boi-ca-thumb.jpg","poster_url":"chim-boi-ca-poster.jpg","slug":"chim-boi-ca","year":2022},{"modified":{"time":"2024-02-26T16:14:04.000Z"},"_id":"65c10a93ff05f1a47d08c361","name":"Thua Lỗ Thành Thủ Phủ Từ Trò Chơi","slug":"thua-lo-thanh-thu-phu-tu-tro-choi","origin_name":"亏成首富从游戏开始","thumb_url":"thua-lo-thanh-thu-phu-tu-tro-choi-thumb.jpg","poster_url":"thua-lo-thanh-thu-phu-tu-tro-choi-poster.jpg","year":2024},{"modified":{"time":"2024-02-26T16:07:47.000Z"},"_id":"659ac8037074f826ccbfef7d","name":"Bị đuổi khỏi tổ đội anh hùng, tôi nhắm đến một cuộc sống nhàn nhã ở vùng biên cương Phần 2","slug":"bi-duoi-khoi-to-doi-anh-hung-toi-nham-den-mot-cuoc-song-nhan-nha-o-vung-bien-cuong-phan-2","origin_name":"真の仲間じゃないと勇者のパーティーを追い出されたので、辺境でスローライフすることにしました 第2期","thumb_url":"bi-duoi-khoi-to-doi-anh-hung-toi-nham-den-mot-cuoc-song-nhan-nha-o-vung-bien-cuong-phan-2-thumb.jpg","poster_url":"bi-duoi-khoi-to-doi-anh-hung-toi-nham-den-mot-cuoc-song-nhan-nha-o-vung-bien-cuong-phan-2-poster.jpg","year":2024},{"modified":{"time":"2024-02-26T14:22:55.000Z"},"_id":"65dc3b90e5f40e2ffe658329","name":"Khách Sạn Grand Shining","slug":"khach-san-grand-shining","origin_name":"Grand Shining Hotel","thumb_url":"khach-san-grand-shining-thumb.jpg","poster_url":"khach-san-grand-shining-poster.jpg","year":2024},{"modified":{"time":"2024-02-26T14:00:13.000Z"},"_id":"63f5cf07a4a27d20d1661ccc","name":"Người Anh Em","origin_name":"十兄弟","thumb_url":"nguoi-anh-em-1-thumb.jpg","poster_url":"nguoi-anh-em-1-poster.jpg","slug":"nguoi-anh-em-1","year":2005},{"modified":{"time":"2024-02-26T10:09:04.000Z"},"_id":"65db5ad9f5295c8cd1f76ffe","name":"Vũ Trụ Xa Lạ","slug":"vu-tru-xa-la","origin_name":"Constellation","thumb_url":"vu-tru-xa-la-thumb.jpg","poster_url":"vu-tru-xa-la-poster.jpg","year":2024},{"modified":{"time":"2024-02-26T09:51:44.000Z"},"_id":"65dbfcbdf5295c8cd1f804d7","name":"20 Days in Mariupol","slug":"20-days-in-mariupol","origin_name":"20 Days in Mariupol","thumb_url":"20-days-in-mariupol-thumb.jpg","poster_url":"20-days-in-mariupol-poster.jpg","year":2023},{"modified":{"time":"2024-02-26T09:50:25.000Z"},"_id":"65dbfc6ff5295c8cd1f80216","name":"Âm Thanh Của Trái Đất - Earthsounds","slug":"am-thanh-cua-trai-dat-earthsounds","origin_name":"Earthsounds","thumb_url":"am-thanh-cua-trai-dat-earthsounds-thumb.jpg","poster_url":"am-thanh-cua-trai-dat-earthsounds-poster.jpg","year":2024},{"modified":{"time":"2024-02-26T09:43:27.000Z"},"_id":"65dbfacdf5295c8cd1f7fa8d","name":"Kỳ World Cup Của Messi: Huyền Thoại Tỏa Sáng - Messi's World Cup: The Rise of a Legend","slug":"ky-world-cup-cua-messi-huyen-thoai-toa-sang-messis-world-cup-the-rise-of-a-legend","origin_name":"Messi's World Cup: The Rise of a Legend","thumb_url":"ky-world-cup-cua-messi-huyen-thoai-toa-sang-messis-world-cup-the-rise-of-a-legend-thumb.jpg","poster_url":"ky-world-cup-cua-messi-huyen-thoai-toa-sang-messis-world-cup-the-rise-of-a-legend-poster.jpg","year":2024},{"modified":{"time":"2024-02-26T09:40:24.000Z"},"_id":"65dbfa16e5f40e2ffe64f750","name":"Einstein và trái bom","slug":"einstein-va-trai-bom","origin_name":"Einstein and the Bomb","thumb_url":"einstein-va-trai-bom-thumb.jpg","poster_url":"einstein-va-trai-bom-poster.jpg","year":2024}],"pathImage":"https://img.ophim12.cc/uploads/movies/","pagination":{"totalItems":25397,"totalItemsPerPage":24,"currentPage":1,"totalPages":1059}}