{"status":true,"items":[{"modified":{"time":"2024-01-23T00:22:40.000Z"},"_id":"65aea46031d8a2b99ebf131b","name":"Từ đám tro tàn","slug":"tu-dam-tro-tan","origin_name":"From the Ashes","thumb_url":"tu-dam-tro-tan-thumb.jpg","poster_url":"tu-dam-tro-tan-poster.jpg","year":2024},{"modified":{"time":"2024-01-23T00:21:37.000Z"},"_id":"65aea41b31d8a2b99ebf0df2","name":"Trở lại điểm xuất phát","slug":"tro-lai-diem-xuat-phat","origin_name":"Full Circle","thumb_url":"tro-lai-diem-xuat-phat-thumb.jpg","poster_url":"tro-lai-diem-xuat-phat-poster.jpg","year":2023},{"modified":{"time":"2024-01-23T00:20:50.000Z"},"_id":"62dde4252d8263cfd1089580","name":"Tình yêu trên phổ tự kỷ (Phần 2)","origin_name":"Love on the Spectrum (Season 2)","thumb_url":"tinh-yeu-tren-pho-tu-ky-phan-2-thumb.jpg","poster_url":"tinh-yeu-tren-pho-tu-ky-phan-2-poster.jpg","slug":"tinh-yeu-tren-pho-tu-ky-phan-2","year":2021},{"modified":{"time":"2024-01-23T00:20:12.000Z"},"_id":"65aea3cc7074f826cceb0c90","name":"Thanh tra Forst","slug":"thanh-tra-forst","origin_name":"Detective Forst","thumb_url":"thanh-tra-forst-thumb.jpg","poster_url":"thanh-tra-forst-poster.jpg","year":2024},{"modified":{"time":"2024-01-23T00:19:34.000Z"},"_id":"65aea3a631d8a2b99ebf0649","name":"Sáu mươi phút","slug":"sau-muoi-phut","origin_name":"Sixty Minutes","thumb_url":"sau-muoi-phut-thumb.jpg","poster_url":"sau-muoi-phut-poster.jpg","year":2024},{"modified":{"time":"2024-01-23T00:18:34.000Z"},"_id":"65aea36a31d8a2b99ebf01f0","name":"Nước mắt rơi trên thảm nguyện","slug":"nuoc-mat-roi-tren-tham-nguyen","origin_name":"Air Mata di Ujung Sajadah","thumb_url":"nuoc-mat-roi-tren-tham-nguyen-thumb.jpg","poster_url":"nuoc-mat-roi-tren-tham-nguyen-poster.jpg","year":2023},{"modified":{"time":"2024-01-23T00:17:53.000Z"},"_id":"65aea3417074f826cceb0246","name":"Primbon","slug":"primbon","origin_name":"Primbon","thumb_url":"primbon-thumb.jpg","poster_url":"primbon-poster.jpg","year":2023},{"modified":{"time":"2024-01-23T00:17:21.000Z"},"_id":"65ae8d3b31d8a2b99ebe9fc0","name":"Rebooting","slug":"rebooting","origin_name":"Brush Up Life","thumb_url":"rebooting-thumb.jpg","poster_url":"rebooting-poster.jpg","year":2023},{"modified":{"time":"2024-01-23T00:16:10.000Z"},"_id":"65283731fe8e2316c0927906","name":"NH4T KÝ (Phần 2)","slug":"nh4t-ky-phan-2","origin_name":"DI4RIES (Season 2)","thumb_url":"nh4t-ky-phan-2-thumb.jpg","poster_url":"nh4t-ky-phan-2-poster.jpg","year":2023},{"modified":{"time":"2024-01-23T00:15:46.000Z"},"_id":"65aea2c27074f826cceafad1","name":"Kübra","slug":"kubra","origin_name":"Kübra","thumb_url":"kubra-thumb.jpg","poster_url":"kubra-poster.jpg","year":2024},{"modified":{"time":"2024-01-23T00:15:01.000Z"},"_id":"65aea2957074f826cceaf7e5","name":"Killer Soup","slug":"killer-soup","origin_name":"Killer Soup","thumb_url":"killer-soup-thumb.jpg","poster_url":"killer-soup-poster.jpg","year":2024},{"modified":{"time":"2024-01-23T00:14:22.000Z"},"_id":"65aea26e7074f826cceaf5ad","name":"Khu dân cư The Kitchen","slug":"khu-dan-cu-the-kitchen","origin_name":"The Kitchen","thumb_url":"khu-dan-cu-the-kitchen-thumb.jpg","poster_url":"khu-dan-cu-the-kitchen-poster.jpg","year":2023},{"modified":{"time":"2024-01-23T00:13:13.000Z"},"_id":"6252e8e7b89e1095080826f7","name":"Hành trình Pokémon: Loạt phim (Pokémon Master Journeys)","origin_name":"Pokémon Journeys: The Series","thumb_url":"hanh-trinh-pokemon-loat-phim-pokemon-master-journeys-thumb.jpg","slug":"hanh-trinh-pokemon-loat-phim-pokemon-master-journeys","year":2021,"poster_url":"hanh-trinh-pokemon-loat-phim-pokemon-master-journeys-poster.jpg"},{"modified":{"time":"2024-01-23T00:12:42.000Z"},"_id":"65aea20a31d8a2b99ebeecd6","name":"Cơn ác mộng Mỹ","slug":"con-ac-mong-my","origin_name":"American Nightmare","thumb_url":"con-ac-mong-my-thumb.jpg","poster_url":"con-ac-mong-my-poster.jpg","year":2024},{"modified":{"time":"2024-01-23T00:11:28.000Z"},"_id":"65aea1c031d8a2b99ebee9ca","name":"Chuộc lại tình yêu","slug":"chuoc-lai-tinh-yeu","origin_name":"Redeeming Love","thumb_url":"chuoc-lai-tinh-yeu-thumb.jpg","poster_url":"chuoc-lai-tinh-yeu-poster.jpg","year":2022},{"modified":{"time":"2024-01-23T00:11:01.000Z"},"_id":"65aea1a531d8a2b99ebee7e7","name":"Chó sói và sư tử","slug":"cho-soi-va-su-tu","origin_name":"The Wolf and the Lion","thumb_url":"cho-soi-va-su-tu-thumb.jpg","poster_url":"cho-soi-va-su-tu-poster.jpg","year":2021},{"modified":{"time":"2024-01-23T00:10:22.000Z"},"_id":"65aea17e31d8a2b99ebee58e","name":"Champion","slug":"champion","origin_name":"Champion","thumb_url":"champion-thumb.jpg","poster_url":"champion-poster.jpg","year":2024},{"modified":{"time":"2024-01-23T00:09:16.000Z"},"_id":"65aea13c31d8a2b99ebee21f","name":"Break Point: Đường tới Grand Slam (Phần 2)","slug":"break-point-duong-toi-grand-slam-phan-2","origin_name":"Break Point (Season 2)","thumb_url":"break-point-duong-toi-grand-slam-phan-2-thumb.jpg","poster_url":"break-point-duong-toi-grand-slam-phan-2-poster.jpg","year":2024},{"modified":{"time":"2024-01-23T00:07:44.000Z"},"_id":"65aea0e07074f826cceae12b","name":"Bến xe cuối","slug":"ben-xe-cuoi","origin_name":"End of the Line","thumb_url":"ben-xe-cuoi-thumb.jpg","poster_url":"ben-xe-cuoi-poster.jpg","year":2024},{"modified":{"time":"2024-01-23T00:06:56.000Z"},"_id":"6571a795efed8b7739889a2b","name":"Ẩm Thực Của Fermat","slug":"am-thuc-cua-fermat","origin_name":"Fermat’s Cuisine","thumb_url":"am-thuc-cua-fermat-thumb.jpg","poster_url":"am-thuc-cua-fermat-poster.jpg","year":2023},{"modified":{"time":"2024-01-22T20:34:29.000Z"},"_id":"65ae6ee37074f826ccea6043","name":"Oshin","slug":"oshin","origin_name":"Oshin","thumb_url":"oshin-thumb.jpg","poster_url":"oshin-poster.jpg","year":1983},{"modified":{"time":"2024-01-22T20:27:36.000Z"},"_id":"65ae6d4431d8a2b99ebe5329","name":"Tế tướng Lưu Gù ","slug":"te-tuong-luu-gu","origin_name":"Tế tướng Lưu Gù ","thumb_url":"te-tuong-luu-gu-thumb.jpg","poster_url":"te-tuong-luu-gu-poster.jpg","year":1996},{"modified":{"time":"2024-01-22T13:01:44.000Z"},"_id":"6225fe8ceb35da19972dc581","name":"Bạo tẩu học sinh giữ lại trường","origin_name":"Baozou Detention","thumb_url":"bao-tau-hoc-sinh-giu-lai-truong-thumb.jpg","slug":"bao-tau-hoc-sinh-giu-lai-truong","year":2018,"poster_url":"bao-tau-hoc-sinh-giu-lai-truong-poster.jpg"},{"modified":{"time":"2024-01-22T13:01:25.000Z"},"_id":"6225fdd6eb35da19972dc431","name":"Giáo viên mỹ thuật của tôi","origin_name":"My Art Teacher","thumb_url":"giao-vien-my-thuat-cua-toi-thumb.jpg","slug":"giao-vien-my-thuat-cua-toi","year":2018,"poster_url":"giao-vien-my-thuat-cua-toi-poster.jpg"}],"pathImage":"https://img.ophim11.cc/uploads/movies/","pagination":{"totalItems":25296,"totalItemsPerPage":24,"currentPage":7,"totalPages":1054}}