{"status":true,"items":[{"modified":{"time":"2024-02-03T21:41:25.000Z"},"_id":"6424439b83982600241f3873","name":"Gia Đình","slug":"gia-dinh","origin_name":"Aile","thumb_url":"gia-dinh-thumb.jpg","poster_url":"gia-dinh-poster.jpg","year":2023},{"modified":{"time":"2024-02-03T21:41:02.000Z"},"_id":"63afcd956414a08fbe684675","name":"Sorbet Nam Việt Quất","origin_name":"Kızılcık Şerbeti","thumb_url":"sorbet-nam-viet-quat-thumb.jpg","poster_url":"sorbet-nam-viet-quat-poster.jpg","slug":"sorbet-nam-viet-quat","year":2022},{"modified":{"time":"2024-02-03T21:40:40.000Z"},"_id":"65af840a31d8a2b99ec02142","name":"Yêu Không Giới Hạn","slug":"yeu-khong-gioi-han","origin_name":" Hudutsuz Sevda                                                                                                                                                                                                                                  ","thumb_url":"yeu-khong-gioi-han-thumb.jpg","poster_url":"yeu-khong-gioi-han-poster.jpg","year":2023},{"modified":{"time":"2024-02-03T15:05:36.000Z"},"_id":"65586fd303f63c57cb9da467","name":"Bất Tử Bất Diệt: Thiếu Niên Xuất Sơn","slug":"bat-tu-bat-diet-thieu-nien-xuat-son","origin_name":"The Eternal Strife","thumb_url":"bat-tu-bat-diet-thieu-nien-xuat-son-thumb.jpg","poster_url":"bat-tu-bat-diet-thieu-nien-xuat-son-poster.jpg","year":2023},{"modified":{"time":"2024-02-03T15:05:16.000Z"},"_id":"659901477074f826ccbd9885","name":"Chặng đường Pon","slug":"chang-duong-pon","origin_name":"ぽんのみち","thumb_url":"chang-duong-pon-thumb.jpg","poster_url":"chang-duong-pon-poster.jpg","year":2024},{"modified":{"time":"2024-02-03T14:54:39.000Z"},"_id":"65bd119b5540d59e3fddc067","name":"a sheep in wolf's clothing","slug":"a-sheep-in-wolfs-clothing","origin_name":"披着狼皮的羊","thumb_url":"a-sheep-in-wolfs-clothing-thumb.jpg","poster_url":"a-sheep-in-wolfs-clothing-poster.jpg","year":2023},{"modified":{"time":"2024-02-03T14:50:13.000Z"},"_id":"65bdefe95540d59e3fdeda07","name":"1st Kiss ","slug":"1st-kiss","origin_name":"你的人生是我来迟了","thumb_url":"1st-kiss-thumb.jpg","poster_url":"1st-kiss-poster.jpg","year":2023},{"modified":{"time":"2024-02-03T12:26:40.000Z"},"_id":"65a0caf131d8a2b99ea0d710","name":"Hoa Thanh Ca","slug":"hoa-thanh-ca","origin_name":"Different Princess","thumb_url":"hoa-thanh-ca-thumb.jpg","poster_url":"hoa-thanh-ca-poster.jpg","year":2024},{"modified":{"time":"2024-02-03T12:18:53.000Z"},"_id":"65b1e73031d8a2b99ec38ffa","name":"Tướng Quân Ở Dưới","slug":"tuong-quan-o-duoi","origin_name":"My Lady General","thumb_url":"tuong-quan-o-duoi-thumb.jpg","poster_url":"tuong-quan-o-duoi-poster.jpg","year":2023},{"modified":{"time":"2024-02-03T11:54:57.000Z"},"_id":"65b37b3631d8a2b99ec63492","name":"Bá Chủ Bầu Trời","slug":"ba-chu-bau-troi","origin_name":"Masters of the Air","thumb_url":"ba-chu-bau-troi-thumb.jpg","poster_url":"ba-chu-bau-troi-poster.jpg","year":2024},{"modified":{"time":"2024-02-03T11:54:30.000Z"},"_id":"65bb5eff5540d59e3fdb157c","name":"Alexander Đại Đế: Tạo Nên Một Vị Thần","slug":"alexander-dai-de-tao-nen-mot-vi-than","origin_name":"Alexander: The Making of a God","thumb_url":"alexander-dai-de-tao-nen-mot-vi-than-thumb.jpg","poster_url":"alexander-dai-de-tao-nen-mot-vi-than-poster.jpg","year":2024},{"modified":{"time":"2024-02-02T21:55:05.000Z"},"_id":"65bcfde6ff05f1a47d028ba1","name":"Orion và Bóng Tối","slug":"orion-va-bong-toi","origin_name":"Orion and the Dark","thumb_url":"orion-va-bong-toi-thumb.jpg","poster_url":"orion-va-bong-toi-poster.jpg","year":2024},{"modified":{"time":"2024-02-02T20:50:36.000Z"},"_id":"65bcf32a5540d59e3fdd8d8e","name":"Traffickers: Inside The Golden Triangle","slug":"traffickers-inside-the-golden-triangle","origin_name":"Traffickers: Inside The Golden Triangle","thumb_url":"traffickers-inside-the-golden-triangle-thumb.jpg","poster_url":"traffickers-inside-the-golden-triangle-poster.jpg","year":2021},{"modified":{"time":"2024-02-02T20:05:48.000Z"},"_id":"64fa921faab68118a3914f18","name":"Ngọc Bích","slug":"ngoc-bich","origin_name":"Safir","thumb_url":"ngoc-bich-thumb.jpg","poster_url":"ngoc-bich-poster.jpg","year":2023},{"modified":{"time":"2024-02-02T19:56:44.000Z"},"_id":"65bcd6e4ff05f1a47d02367a","name":"Con Gái Ngài Đại Sứ","slug":"con-gai-ngai-dai-su","origin_name":"Sefirin Kizi","thumb_url":"con-gai-ngai-dai-su-thumb.jpg","poster_url":"con-gai-ngai-dai-su-poster.jpg","year":2019},{"modified":{"time":"2024-02-02T18:47:17.000Z"},"_id":"64147f7e72b9a838f842fcf9","name":"Chim Lửa","slug":"chim-lua-tho-nhi-ky","origin_name":"Ateş Kuşları","thumb_url":"chim-lua-tho-nhi-ky-thumb.jpg","poster_url":"chim-lua-tho-nhi-ky-poster.jpg","year":2023},{"modified":{"time":"2024-02-02T17:45:30.000Z"},"_id":"65bcb506ff05f1a47d01eaca","name":"M&S Organization","slug":"mands-organization","origin_name":"山海际会","thumb_url":"mands-organization-thumb.jpg","poster_url":"mands-organization-poster.jpg","year":2023},{"modified":{"time":"2024-02-02T17:12:16.000Z"},"_id":"65bca1185540d59e3fdcc3c8","name":"Fabulous Beasts","slug":"fabulous-beasts","origin_name":"有兽焉","thumb_url":"fabulous-beasts-thumb.jpg","poster_url":"fabulous-beasts-poster.jpg","year":2023},{"modified":{"time":"2024-02-02T16:31:21.000Z"},"_id":"63397c990ee52b6834c1d9b0","name":"URUSEI YATSURA","origin_name":"うる星やつら","thumb_url":"urusei-yatsura-thumb.jpg","poster_url":"urusei-yatsura-poster.jpg","slug":"urusei-yatsura","year":2022},{"modified":{"time":"2024-02-02T16:31:02.000Z"},"_id":"65a0ef7f31d8a2b99ea1442d","name":"URUSEI YATSURA Mùa 2","slug":"urusei-yatsura-mua-2","origin_name":"うる星やつら　後半","thumb_url":"urusei-yatsura-mua-2-thumb.jpg","poster_url":"urusei-yatsura-mua-2-poster.jpg","year":2024},{"modified":{"time":"2024-02-02T16:30:31.000Z"},"_id":"653b74f9aab68118a3b76d78","name":"Thiếu Niên Ca Hành Phần 3","slug":"thieu-nien-ca-hanh-phan-3","origin_name":"少年歌行 第三季","thumb_url":"thieu-nien-ca-hanh-phan-3-thumb.jpg","poster_url":"thieu-nien-ca-hanh-phan-3-poster.jpg","year":2023},{"modified":{"time":"2024-02-02T16:30:04.000Z"},"_id":"658544beefed8b7739da4440","name":"No. 7 West Mars St.","slug":"no-7-west-mars-st","origin_name":"火星西路7号","thumb_url":"no-7-west-mars-st-thumb.jpg","poster_url":"no-7-west-mars-st-poster.jpg","year":2023},{"modified":{"time":"2024-02-02T16:22:11.000Z"},"_id":"65bc9fcb5540d59e3fdcbb0f","name":"Four-Panel Heroes","slug":"four-panel-heroes","origin_name":"四格勇者","thumb_url":"four-panel-heroes-thumb.jpg","poster_url":"four-panel-heroes-poster.jpg","year":2022},{"modified":{"time":"2024-02-02T15:47:21.000Z"},"_id":"658151f42f36c295ed48b817","name":"Percy Jackson và Các Vị Thần Trên Đỉnh Olympus","slug":"percy-jackson-va-cac-vi-than-tren-dinh-olympus","origin_name":"Percy Jackson and the Olympians","thumb_url":"percy-jackson-va-cac-vi-than-tren-dinh-olympus-thumb.jpg","poster_url":"percy-jackson-va-cac-vi-than-tren-dinh-olympus-poster.jpg","year":2023}],"pathImage":"https://img.ophim11.cc/uploads/movies/","pagination":{"totalItems":25309,"totalItemsPerPage":24,"currentPage":3,"totalPages":1055}}