{"status":true,"items":[{"modified":{"time":"2024-01-21T22:26:34.000Z"},"_id":"657e9742efed8b7739b91ed6","name":"Thăng Cấp Một Mình","slug":"thang-cap-mot-minh","origin_name":"Chỉ mình tôi thăng cấp, Solo Leveling","thumb_url":"thang-cap-mot-minh-thumb.jpg","poster_url":"thang-cap-mot-minh-poster.jpg","year":2024},{"modified":{"time":"2024-01-21T18:09:42.000Z"},"_id":"6524d6601e9ad2fe0c48dbdd","name":"Shangri-La Frontier: Thợ săn game rác","slug":"shangri-la-frontier","origin_name":"Shangri-La Frontier","thumb_url":"shangri-la-frontier-thumb.jpg","poster_url":"shangri-la-frontier-poster.jpg","year":2023},{"modified":{"time":"2024-01-21T16:51:30.000Z"},"_id":"6220e66e8481266c5b7f154f","name":"Đảo Hải Tặc","origin_name":"One Piece (Luffy)","thumb_url":"one-piece-thumb.jpg","slug":"one-piece","year":1999,"poster_url":"one-piece-poster.jpg"},{"modified":{"time":"2024-01-21T16:08:18.000Z"},"_id":"657ea057efed8b7739b93f78","name":"Cuộc Sống Thường Ngày Của Tiên Vương (Phần 4)","slug":"cuoc-song-thuong-ngay-cua-tien-vuong-phan-4","origin_name":"The Daily Life of the Immortal King Season 4","thumb_url":"cuoc-song-thuong-ngay-cua-tien-vuong-phan-4-thumb.jpg","poster_url":"cuoc-song-thuong-ngay-cua-tien-vuong-phan-4-poster.jpg","year":2023},{"modified":{"time":"2024-01-21T11:06:27.000Z"},"_id":"658ea0c97074f826cca04fc5","name":"Vượt Đại Dương Để Yêu Em","slug":"vuot-dai-duong-de-yeu-em","origin_name":"You'll Never Walk Alone","thumb_url":"vuot-dai-duong-de-yeu-em-thumb.jpg","poster_url":"vuot-dai-duong-de-yeu-em-poster.jpg","year":2023},{"modified":{"time":"2024-01-21T10:53:57.000Z"},"_id":"659e42b47074f826ccc483c9","name":"Transit Love (Phần 3)","slug":"transit-love-phan-3","origin_name":"EXchange","thumb_url":"transit-love-phan-3-thumb.jpg","poster_url":"transit-love-phan-3-poster.jpg","year":2023},{"modified":{"time":"2024-01-20T23:05:29.000Z"},"_id":"658151f42f36c295ed48b817","name":"Percy Jackson và Các Vị Thần Trên Đỉnh Olympus","slug":"percy-jackson-va-cac-vi-than-tren-dinh-olympus","origin_name":"Percy Jackson and the Olympians","thumb_url":"percy-jackson-va-cac-vi-than-tren-dinh-olympus-thumb.jpg","poster_url":"percy-jackson-va-cac-vi-than-tren-dinh-olympus-poster.jpg","year":2023},{"modified":{"time":"2024-01-20T22:14:41.000Z"},"_id":"65548780aa7d07ce5c879e77","name":"Người Yêu Của Tôi Là Thần Tình Yêu","slug":"nguoi-yeu-cua-toi-la-than-tinh-yeu","origin_name":"My Man Is Cupid","thumb_url":"nguoi-yeu-cua-toi-la-than-tinh-yeu-thumb.jpg","poster_url":"nguoi-yeu-cua-toi-la-than-tinh-yeu-poster.jpg","year":2023},{"modified":{"time":"2024-01-20T22:12:38.000Z"},"_id":"6560ba40aa7d07ce5c9e582f","name":"Chàng Quỷ Của Tôi","slug":"chang-quy-cua-toi","origin_name":"My Demon","thumb_url":"chang-quy-cua-toi-thumb.jpg","poster_url":"chang-quy-cua-toi-poster.jpg","year":2023},{"modified":{"time":"2024-01-20T22:01:58.000Z"},"_id":"63afcd956414a08fbe684675","name":"Sorbet Nam Việt Quất","origin_name":"Kızılcık Şerbeti","thumb_url":"sorbet-nam-viet-quat-thumb.jpg","poster_url":"sorbet-nam-viet-quat-poster.jpg","slug":"sorbet-nam-viet-quat","year":2022},{"modified":{"time":"2024-01-20T22:01:24.000Z"},"_id":"6424439b83982600241f3873","name":"Gia Đình","slug":"gia-dinh","origin_name":"Aile","thumb_url":"gia-dinh-thumb.jpg","poster_url":"gia-dinh-poster.jpg","year":2023},{"modified":{"time":"2024-01-20T22:01:13.000Z"},"_id":"657d2409efed8b7739aafc4b","name":"Wonka","slug":"wonka","origin_name":"Wonka","thumb_url":"wonka-thumb.jpg","poster_url":"wonka-poster.jpg","year":2023},{"modified":{"time":"2024-01-20T14:26:40.000Z"},"_id":"659901477074f826ccbd9885","name":"Chặng đường Pon","slug":"chang-duong-pon","origin_name":"ぽんのみち","thumb_url":"chang-duong-pon-thumb.jpg","poster_url":"chang-duong-pon-poster.jpg","year":2024},{"modified":{"time":"2024-01-20T14:26:22.000Z"},"_id":"65586fd303f63c57cb9da467","name":"Bất Tử Bất Diệt: Thiếu Niên Xuất Sơn","slug":"bat-tu-bat-diet-thieu-nien-xuat-son","origin_name":"The Eternal Strife","thumb_url":"bat-tu-bat-diet-thieu-nien-xuat-son-thumb.jpg","poster_url":"bat-tu-bat-diet-thieu-nien-xuat-son-poster.jpg","year":2023},{"modified":{"time":"2024-01-20T13:04:32.000Z"},"_id":"65ab626c7074f826cce628d9","name":"Phù Thủy Và Quái Thú","slug":"phu-thuy-va-quai-thu","origin_name":"The Witch and the Beast","thumb_url":"phu-thuy-va-quai-thu-thumb.jpg","poster_url":"phu-thuy-va-quai-thu-poster.jpg","year":2024},{"modified":{"time":"2024-01-20T12:32:01.000Z"},"_id":"659cca5431d8a2b99e95f349","name":"Hướng Về Em","slug":"huong-ve-em","origin_name":"All of Her","thumb_url":"huong-ve-em-thumb.jpg","poster_url":"huong-ve-em-poster.jpg","year":2024},{"modified":{"time":"2024-01-20T11:59:30.000Z"},"_id":"65a759dc31d8a2b99eb41bed","name":"Vương Giả Vinh Diệu - Vinh Diệu Chi Chương: Thành Toái Nguyệt","slug":"vuong-gia-vinh-dieu-vinh-dieu-chi-chuong-thanh-toai-nguyet","origin_name":"Honor of Kings: Chapter of Glory","thumb_url":"vuong-gia-vinh-dieu-vinh-dieu-chi-chuong-thanh-toai-nguyet-thumb.jpg","poster_url":"vuong-gia-vinh-dieu-vinh-dieu-chi-chuong-thanh-toai-nguyet-poster.jpg","year":2024},{"modified":{"time":"2024-01-20T11:49:14.000Z"},"_id":"65ab4ea87074f826cce5eaac","name":"Di Sản Kỳ Bí","slug":"di-san-ky-bi","origin_name":"The Bequeathed","thumb_url":"di-san-ky-bi-thumb.jpg","poster_url":"di-san-ky-bi-poster.jpg","year":2024},{"modified":{"time":"2024-01-20T10:26:51.000Z"},"_id":"6225fe9aeb35da19972dc59c","name":"Bảo tàng các mối quan hệ tan vỡ","origin_name":"Museum of Broken Relationships","thumb_url":"bao-tang-cac-moi-quan-he-tan-vo-thumb.jpg","slug":"bao-tang-cac-moi-quan-he-tan-vo","year":2018,"poster_url":"bao-tang-cac-moi-quan-he-tan-vo-poster.jpg"},{"modified":{"time":"2024-01-20T10:26:34.000Z"},"_id":"6225fe7feb35da19972dc55d","name":"Đội đặc công đại nội","origin_name":"The Secret Service","thumb_url":"doi-dac-cong-dai-noi-thumb.jpg","slug":"doi-dac-cong-dai-noi","year":2017,"poster_url":"doi-dac-cong-dai-noi-poster.jpg"},{"modified":{"time":"2024-01-20T10:26:19.000Z"},"_id":"6225fe7ceb35da19972dc551","name":"Berserk","origin_name":"Berserk","thumb_url":"berserk-thumb.jpg","slug":"berserk","year":2018,"poster_url":"berserk-poster.jpg"},{"modified":{"time":"2024-01-20T10:26:08.000Z"},"_id":"6225fe67eb35da19972dc539","name":"Biển cả và thiên thần","origin_name":"Sea And Angel","thumb_url":"bien-ca-va-thien-than-thumb.jpg","slug":"bien-ca-va-thien-than","year":2017,"poster_url":"bien-ca-va-thien-than-poster.jpg"},{"modified":{"time":"2024-01-20T10:25:57.000Z"},"_id":"6225fe5deb35da19972dc51c","name":"Đội đặc công nhanh nhẹn","origin_name":"Shining Force","thumb_url":"doi-dac-cong-nhanh-nhen-thumb.jpg","slug":"doi-dac-cong-nhanh-nhen","year":2018,"poster_url":"doi-dac-cong-nhanh-nhen-poster.jpg"},{"modified":{"time":"2024-01-20T10:25:44.000Z"},"_id":"6225fe59eb35da19972dc505","name":"Bí mật của cô gái","origin_name":"Girl&#x27;&#x27;s Secret","thumb_url":"bi-mat-cua-co-gai-thumb.jpg","slug":"bi-mat-cua-co-gai","year":2018,"poster_url":"bi-mat-cua-co-gai-poster.jpg"}],"pathImage":"https://img.ophim10.cc/uploads/movies/","pagination":{"totalItems":25261,"totalItemsPerPage":24,"currentPage":6,"totalPages":1053}}