{"status":true,"items":[{"modified":{"time":"2024-01-15T18:01:46.000Z"},"_id":"659a4fda31d8a2b99e927cb4","name":"Mashle: Ma thuật và Cơ bắp (Phần 2)","slug":"mashle-ma-thuat-va-co-bap-phan-2","origin_name":"MASHLE: MAGIC AND MUSCLES Season 2","thumb_url":"mashle-ma-thuat-va-co-bap-phan-2-thumb.jpg","poster_url":"mashle-ma-thuat-va-co-bap-phan-2-poster.jpg","year":2024},{"modified":{"time":"2024-01-15T15:33:22.000Z"},"_id":"65548909aa7d07ce5c87ad65","name":"Nhạc Trưởng Maestra: Sợi Dây Chân Lý","slug":"nhac-truong-maestra-soi-day-chan-ly","origin_name":"Maestra: Strings of Truth","thumb_url":"nhac-truong-maestra-soi-day-chan-ly-thumb.jpg","poster_url":"nhac-truong-maestra-soi-day-chan-ly-poster.jpg","year":2023},{"modified":{"time":"2024-01-15T13:32:58.000Z"},"_id":"65a0f40d31d8a2b99ea15a3d","name":"Sonic Prime (Phần 3)","slug":"sonic-prime-phan-3","origin_name":"Sonic Prime Season 3","thumb_url":"sonic-prime-phan-3-thumb.jpg","poster_url":"sonic-prime-phan-3-poster.jpg","year":2024},{"modified":{"time":"2024-01-15T11:34:58.000Z"},"_id":"622602d0eb35da19972dcca9","name":"Núi lửa Dante","origin_name":"Dante Peak","thumb_url":"nui-lua-dante-thumb.jpg","slug":"nui-lua-dante","year":1997,"poster_url":"nui-lua-dante-poster.jpg"},{"modified":{"time":"2024-01-15T11:34:44.000Z"},"_id":"622601d1eb35da19972dcb01","name":"Thuê chung một giường","origin_name":"Day and Night","thumb_url":"thue-chung-mot-giuong-thumb.jpg","slug":"thue-chung-mot-giuong","year":2016,"poster_url":"thue-chung-mot-giuong-poster.jpg"},{"modified":{"time":"2024-01-15T11:34:32.000Z"},"_id":"622601beeb35da19972dcad6","name":"Đại tác chiến yêu đương","origin_name":"War of Love","thumb_url":"dai-tac-chien-yeu-duong-thumb.jpg","slug":"dai-tac-chien-yeu-duong","year":2017,"poster_url":"dai-tac-chien-yeu-duong-poster.jpg"},{"modified":{"time":"2024-01-15T11:34:19.000Z"},"_id":"622601bbeb35da19972dcaca","name":"Tiện thần Tam thiếu gia 2","origin_name":"The Third Childe 2","thumb_url":"tien-than-tam-thieu-gia-2-thumb.jpg","slug":"tien-than-tam-thieu-gia-2","year":2017,"poster_url":"tien-than-tam-thieu-gia-2-poster.jpg"},{"modified":{"time":"2024-01-15T11:34:08.000Z"},"_id":"622601aceb35da19972dcab4","name":"Tim đập trí mạng","origin_name":"Heart Transplant","thumb_url":"tim-dap-tri-mang-thumb.jpg","slug":"tim-dap-tri-mang","year":2018,"poster_url":"tim-dap-tri-mang-poster.jpg"},{"modified":{"time":"2024-01-15T11:33:54.000Z"},"_id":"6226019feb35da19972dcaa3","name":"Tinh linh siêu năng ngày tận thế","origin_name":"The Power in the End of the World","thumb_url":"tinh-linh-sieu-nang-ngay-tan-the-thumb.jpg","slug":"tinh-linh-sieu-nang-ngay-tan-the","year":2017,"poster_url":"tinh-linh-sieu-nang-ngay-tan-the-poster.jpg"},{"modified":{"time":"2024-01-15T11:33:43.000Z"},"_id":"6226018feb35da19972dca8e","name":"Đàn ông có tuổi cũng điên cuồng","origin_name":"Crazy Old Man","thumb_url":"dan-ong-co-tuoi-cung-dien-cuong-thumb.jpg","slug":"dan-ong-co-tuoi-cung-dien-cuong","year":2018,"poster_url":"dan-ong-co-tuoi-cung-dien-cuong-poster.jpg"},{"modified":{"time":"2024-01-15T11:33:33.000Z"},"_id":"62260187eb35da19972dca7f","name":"Tình về nơi đâu","origin_name":"Love without Boundaries","thumb_url":"tinh-ve-noi-dau-thumb.jpg","slug":"tinh-ve-noi-dau","year":2017,"poster_url":"tinh-ve-noi-dau-poster.jpg"},{"modified":{"time":"2024-01-15T11:33:17.000Z"},"_id":"62260179eb35da19972dca6d","name":"Tình yêu ở phía trước","origin_name":"Love in the Front","thumb_url":"tinh-yeu-o-phia-truoc-thumb.jpg","slug":"tinh-yeu-o-phia-truoc","year":2018,"poster_url":"tinh-yeu-o-phia-truoc-poster.jpg"},{"modified":{"time":"2024-01-15T11:32:52.000Z"},"_id":"62260170eb35da19972dca5b","name":"Thần bài","origin_name":"God of Gamblers","thumb_url":"than-bai-thumb.jpg","slug":"than-bai","year":1989,"poster_url":"than-bai-poster.jpg"},{"modified":{"time":"2024-01-15T11:32:36.000Z"},"_id":"62260154eb35da19972dca1b","name":"Monster Hunt 2","origin_name":"Monster Hunt 2","thumb_url":"monster-hunt-2-thumb.jpg","slug":"monster-hunt-2","year":2018,"poster_url":"monster-hunt-2-poster.jpg"},{"modified":{"time":"2024-01-15T11:32:23.000Z"},"_id":"62260151eb35da19972dca0e","name":"Tri kỷ nam của hoa khôi","origin_name":"The Boy Friend","thumb_url":"tri-ky-nam-cua-hoa-khoi-thumb.jpg","slug":"tri-ky-nam-cua-hoa-khoi","year":2018,"poster_url":"tri-ky-nam-cua-hoa-khoi-poster.jpg"},{"modified":{"time":"2024-01-15T11:32:09.000Z"},"_id":"6226014eeb35da19972dca02","name":"Dao cổ","origin_name":"Antique Knife","thumb_url":"dao-co-thumb.jpg","slug":"dao-co","year":2018,"poster_url":"dao-co-poster.jpg"},{"modified":{"time":"2024-01-15T11:31:56.000Z"},"_id":"62260142eb35da19972dc9ef","name":"Vinh diệu thích khách- Kinh Hà","origin_name":"The Assassin: Jingke","thumb_url":"vinh-dieu-thich-khach-kinh-ha-thumb.jpg","slug":"vinh-dieu-thich-khach-kinh-ha","year":2018,"poster_url":"vinh-dieu-thich-khach-kinh-ha-poster.jpg"},{"modified":{"time":"2024-01-15T11:31:40.000Z"},"_id":"62260134eb35da19972dc9d3","name":"Vũ sinh","origin_name":"Swordsman","thumb_url":"vu-sinh-thumb.jpg","slug":"vu-sinh","year":2018,"poster_url":"vu-sinh-poster.jpg"},{"modified":{"time":"2024-01-15T11:31:30.000Z"},"_id":"62260127eb35da19972dc9b2","name":"Truyền kỳ sân trường 2","origin_name":"Legend of the Campus 2","thumb_url":"truyen-ky-san-truong-2-thumb.jpg","slug":"truyen-ky-san-truong-2","year":2018,"poster_url":"truyen-ky-san-truong-2-poster.jpg"},{"modified":{"time":"2024-01-15T11:30:21.000Z"},"_id":"62260119eb35da19972dc98f","name":"Truyền thuyết tam thế về bí thuật nhà sư","origin_name":"Three Realms: The Secret Magic","thumb_url":"truyen-thuyet-tam-the-ve-bi-thuat-nha-su-thumb.jpg","slug":"truyen-thuyet-tam-the-ve-bi-thuat-nha-su","year":2017,"poster_url":"truyen-thuyet-tam-the-ve-bi-thuat-nha-su-poster.jpg"},{"modified":{"time":"2024-01-15T11:29:52.000Z"},"_id":"622600faeb35da19972dc95c","name":"Tương lai của Dahai","origin_name":"the future of Dahai","thumb_url":"tuong-lai-cua-dahai-thumb.jpg","slug":"tuong-lai-cua-dahai","year":2018,"poster_url":"tuong-lai-cua-dahai-poster.jpg"},{"modified":{"time":"2024-01-15T11:29:35.000Z"},"_id":"622600eaeb35da19972dc949","name":"Vệt sáng trong bóng đêm","origin_name":"The Light in Darkness","thumb_url":"vet-sang-trong-bong-dem-thumb.jpg","slug":"vet-sang-trong-bong-dem","year":2018,"poster_url":"vet-sang-trong-bong-dem-poster.jpg"},{"modified":{"time":"2024-01-14T20:43:19.000Z"},"_id":"65711707efed8b7739873bf4","name":"Tiên Nghịch","slug":"tien-nghich","origin_name":"Renegade Immortal","thumb_url":"tien-nghich-thumb.jpg","poster_url":"tien-nghich-poster.jpg","year":2023},{"modified":{"time":"2024-01-14T20:42:57.000Z"},"_id":"6572aca9efed8b77398a6902","name":"Thương Nguyên Đồ","slug":"thuong-nguyen-do","origin_name":"The Demon Hunter ","thumb_url":"thuong-nguyen-do-thumb.jpg","poster_url":"thuong-nguyen-do-poster.jpg","year":2023}],"pathImage":"https://img.ophim10.cc/uploads/movies/","pagination":{"totalItems":25261,"totalItemsPerPage":24,"currentPage":11,"totalPages":1053}}